!!!COM: Bach, Johann Sebastian
!!!OPR: Joh. Seb. Bachs vierstimmige Choralgesänge
!!!XEN: Four-part Chorales
!!!OTL: 118. Kyrie! Gott Vater in Ewigkeit
!!!OMV: 1
!!!SCT: BWV 371
!!!SCA: Thematisch-systematisches Verzeichnis der musikalischen Werke Johann Sebastian Bach: Bach-Werke-Verzeichnis (Schmieder)
!!!YOR: Bach Gesellschaft Edition xxxix
!!!EED: Steven Rasmussen
!!!ENC: Steven Rasmussen
!!!CDT: 1685/3//-1750/7/28/
!!!OCY: Deutschland
!!!YEC: Copyright (c) 1994, 2000 Center for Computer Assisted Research in the Humanities
!!!YEM: Rights to all derivative editions reserved
!!!YEM: Refer to licensing agreement for further details
!!!YEN: United States of America
**kern	**silbe	**kern	**silbe	**kern	**silbe	**kern	**silbe
*I:[SOPRANO]	*I:[SOPRANO]	*I:[ALTO]	*I:[ALTO]	*I:[TENORE]	*I:[TENORE]	*I:[BASSO]	*I:[BASSO]
*clefG2	*	*clefG2	*	*clefGv2	*	*clefF4	*
*k[]	*	*k[]	*	*k[]	*	*k[]	*
*C:	*	*C:	*	*C:	*	*C:	*
*M4/4	*	*M4/4	*	*M4/4	*	*M4/4	*
*tb16	*	*tb16	*	*tb16	*	*tb16	*
=1-	=1-	=1-	=1-	=1-	=1-	=1-	=1-
2g/	Ky-	8e/L	Ky-	4.B\	Ky-	4.E\	Ky-
.	.	.	.	.	.	.	.
.	.	8f/J	.	.	.	.	.
.	.	.	.	.	.	.	.
.	.	[4g/	.	.	.	.	.
.	.	.	.	.	.	.	.
.	.	.	.	16c\LL	.	8D\	.
.	.	.	.	16d\JJ	.	.	.
2a/	-ri-	8g/L]	.	8e\L	.	4C/	.
.	.	.	.	.	.	.	.
.	.	16f#/L	.	8A\J	.	.	.
.	.	16e/JJ	.	.	.	.	.
.	.	4f#/	-ri-	4d\	-ri-	4D\	-ri-
.	.	.	.	.	.	.	.
.	.	.	.	.	.	.	.
.	.	.	.	.	.	.	.
=2	=2	=2	=2	=2	=2	=2	=2
2b;\	-e!	2g;/	-e!	2d;\	-e!	2GG;/	-e!
.	.	.	.	.	.	.	.
.	.	.	.	.	.	.	.
.	.	.	.	.	.	.	.
.	.	.	.	.	.	.	.
.	.	.	.	.	.	.	.
.	.	.	.	.	.	.	.
.	.	.	.	.	.	.	.
4a/	Gott	4f/	.	4d\	Gott	4D\	Gott
.	.	.	.	.	.	.	.
.	.	.	.	.	.	.	.
.	.	.	.	.	.	.	.
4cc\	Va-	4e/	.	8c\L	Va-	8AA/L	Va-
.	.	.	.	.	.	.	.
.	.	.	.	8d\J	.	8BB/J	.
.	.	.	.	.	.	.	.
=3	=3	=3	=3	=3	=3	=3	=3
4cc\	-ter	4a/	.	[2e\	-ter	8C/L	-ter
.	.	.	.	.	.	.	.
.	.	.	.	.	.	8D/J	.
.	.	.	.	.	.	.	.
4b\	in	4g/	.	.	.	8E\L	in
.	.	.	.	.	.	.	.
.	.	.	.	.	.	8D\J	.
.	.	.	.	.	.	.	.
4a/	E-	8g/L	.	8e\]	.	8C/L	E-
.	.	.	.	.	.	.	.
.	.	16f#/L	.	8c\	in	8AA/J	.
.	.	16e/JJ	.	.	.	.	.
4a/	-wig-	4f#/	.	8A/	E-	4D\	-wig-
.	.	.	.	.	.	.	.
.	.	.	.	16d\LL	-wig-	.	.
.	.	.	.	16c\JJ	.	.	.
=4	=4	=4	=4	=4	=4	=4	=4
2g;/	-keit!	2d;/	.	2B;\	-keit!	2GG;/	-keit!
.	.	.	.	.	.	.	.
.	.	.	.	.	.	.	.
.	.	.	.	.	.	.	.
.	.	.	.	.	.	.	.
.	.	.	.	.	.	.	.
.	.	.	.	.	.	.	.
.	.	.	.	.	.	.	.
4a/	Gross	8f/L	.	8d\L	.	8D\	Gross
.	.	.	.	.	.	.	.
.	.	8e/J	.	16c\L	.	8E\	ist
.	.	.	.	16B-\JJ	.	.	.
4a/	ist	8d/L	.	4A/	.	[4F\	dein'
.	.	.	.	.	.	.	.
.	.	8c#/J	.	.	.	.	.
.	.	.	.	.	.	.	.
=5	=5	=5	=5	=5	=5	=5	=5
4g/	dein'	8d/	dein'	4B-\	dein'	8F\L]	.
.	.	.	.	.	.	.	.
.	.	8c#/	Barm-	.	.	8E\J	.
.	.	.	.	.	.	.	.
4f/	Barm-	[4d/	-her-	8A\L	Barm-	8F\L	Barm-
.	.	.	.	.	.	.	.
.	.	.	.	8d\J	.	8B-\J	.
.	.	.	.	.	.	.	.
4e/	-her-	8d/L]	.	8B-/L	-her-	8G\L	-her-
.	.	.	.	.	.	.	.
.	.	16c#/L	.	8G/J	.	8E\J	.
.	.	16B/JJ	.	.	.	.	.
4e/	-zig-	4c#/	-zig-	8E/L	-zig-	8A\L	-zig-
.	.	.	.	.	.	.	.
.	.	.	.	16A/L	.	8AA\J	.
.	.	.	.	16G/JJ	.	.	.
=6	=6	=6	=6	=6	=6	=6	=6
2d;/	-keit,	2A;/	-keit,	2F;/	-keit,	2D;\	-keit,
.	.	.	.	.	.	.	.
.	.	.	.	.	.	.	.
.	.	.	.	.	.	.	.
.	.	.	.	.	.	.	.
.	.	.	.	.	.	.	.
.	.	.	.	.	.	.	.
.	.	.	.	.	.	.	.
4d/	al-	4d/	.	4F/	.	4.D\	.
.	.	.	.	.	.	.	.
.	.	.	.	.	.	.	.
.	.	.	.	.	.	.	.
4a/	-ler	4e/	.	8E/L	.	.	.
.	.	.	.	.	.	.	.
.	.	.	.	8A/J	.	8C#/	.
.	.	.	.	.	.	.	.
=7	=7	=7	=7	=7	=7	=7	=7
4a/	Ding'	16f/LL	Ding'	8A\L	Ding'	(8D\	Ding'
.	.	16e/JJ	.	.	.	.	.
.	.	4d/	.	16d\L	.	4F\)	.
.	.	.	.	16c\JJ	.	.	.
4g/	ein	.	.	8B\L	ein	.	.
.	.	.	.	.	.	.	.
.	.	16e/LL	ein	16c\L	.	8E\	ein
.	.	16d/JJ	.	16B\JJ	.	.	.
4a/	Sch\o3-	(8c/	Sch\o3-	8A\L	Sch\o3-	(8F\	Sch\o3-
.	.	.	.	.	.	.	.
.	.	4f/)	.	8c\J	.	4A\)	.
.	.	.	.	.	.	.	.
4b\	-pfer	.	.	8d\L	-pfer	.	.
.	.	.	.	.	.	.	.
.	.	[8e/	-pfer	16c\L	.	8G#\	-pfer
.	.	.	.	16B\JJ	.	.	.
=8	=8	=8	=8	=8	=8	=8	=8
4cc\	und	16e/LL]	.	8A/L	und	(8A\	und
.	.	16f#/JJ	.	.	.	.	.
.	.	4g/	und	16G/L	.	4E\)	.
.	.	.	.	16A/JJ	.	.	.
4b\	Re-	.	.	8B\L	Re-	.	.
.	.	.	.	.	.	.	.
.	.	8g/	Re-	16c\L	.	8D\	Re-
.	.	.	.	16d\JJ	.	.	.
2a/	-gie-	8g/L	-gie-	8e\L	-gie-	8C/L	-gie-
.	.	.	.	.	.	.	.
.	.	16f#/L	.	8c\	.	8AA/J	.
.	.	16e/JJ	.	.	.	.	.
.	.	4f#/	.	8A\	.	4D\	.
.	.	.	.	.	.	.	.
.	.	.	.	8d\J	.	.	.
.	.	.	.	.	.	.	.
=9	=9	=9	=9	=9	=9	=9	=9
2g;/	-rer!	2d;/	-rer!	2B;\	-rer!	2GG;/	-rer!
.	.	.	.	.	.	.	.
.	.	.	.	.	.	.	.
.	.	.	.	.	.	.	.
.	.	.	.	.	.	.	.
.	.	.	.	.	.	.	.
.	.	.	.	.	.	.	.
.	.	.	.	.	.	.	.
4g/	E-	4e/	E-	4.c\	E-	4C/	E-
.	.	.	.	.	.	.	.
.	.	.	.	.	.	.	.
.	.	.	.	.	.	.	.
8f/L	.	4d/	.	.	.	8D\L	.
.	.	.	.	.	.	.	.
8g/J	.	.	.	8B-\	.	8E\J	.
.	.	.	.	.	.	.	.
=10	=10	=10	=10	=10	=10	=10	=10
4a/	.	8c/L	.	8A/L	.	4F\	.
.	.	.	.	.	.	.	.
.	.	8d/J	.	8B/J	.	.	.
.	.	.	.	.	.	.	.
4g/	.	4e/	.	8c\L	.	4C/	.
.	.	.	.	.	.	.	.
.	.	.	.	8B-\J	.	.	.
.	.	.	.	.	.	.	.
4g/	-le-	4e/	-le-	(8A/	-le-	4C#/	-le-
.	.	.	.	.	.	.	.
.	.	.	.	4B-/)	.	.	.
.	.	.	.	.	.	.	.
4f/	-i-	4d/	-i-	.	.	4D\	-i-
.	.	.	.	.	.	.	.
.	.	.	.	8A/	-i-	.	.
.	.	.	.	.	.	.	.
=11	=11	=11	=11	=11	=11	=11	=11
1e;/	-son!	4c/	-son!	4A/	-son!	1E;\	-son!
.	.	.	.	.	.	.	.
.	.	.	.	.	.	.	.
.	.	.	.	.	.	.	.
.	.	8B/L	.	8G#/L	.	.	.
.	.	.	.	.	.	.	.
.	.	8A/J	.	8F#/J	.	.	.
.	.	.	.	.	.	.	.
.	.	2B;/	.	2G#;/	.	.	.
.	.	.	.	.	.	.	.
.	.	.	.	.	.	.	.
.	.	.	.	.	.	.	.
.	.	.	.	.	.	.	.
.	.	.	.	.	.	.	.
.	.	.	.	.	.	.	.
.	.	.	.	.	.	.	.
=12||	=12||	=12||	=12||	=12||	=12||	=12||	=12||
(2e/	Chri-	4B/	Chri-	4G/	Chri-	8E\L	Chri-
.	.	.	.	.	.	.	.
.	.	.	.	.	.	8D\J	.
.	.	.	.	.	.	.	.
.	.	8c/L	.	8A/L	.	2C/	.
.	.	.	.	.	.	.	.
.	.	8B/J	.	8G/J	.	.	.
.	.	.	.	.	.	.	.
2d/)	.	4A/	.	4F#/	.	.	.
.	.	.	.	.	.	.	.
.	.	.	.	.	.	.	.
.	.	.	.	.	.	.	.
.	.	8B/L	.	[4G/	.	8BB/L	.
.	.	.	.	.	.	.	.
.	.	8c/J	.	.	.	8AA/J	.
.	.	.	.	.	.	.	.
=13	=13	=13	=13	=13	=13	=13	=13
2g/	-ste,	8d/L	.	8G\L]	.	4BB/	.
.	.	.	.	.	.	.	.
.	.	8f/J	.	8d\J	.	.	.
.	.	.	.	.	.	.	.
.	.	8e/L	-ste,	8c\L	-ste,	2E\	-ste,
.	.	.	.	.	.	.	.
.	.	8d/J	.	8B\J	.	.	.
.	.	.	.	.	.	.	.
(4a/	al-	8c/L	al-	4.A/	al-	.	.
.	.	.	.	.	.	.	.
.	.	16d/L	.	.	.	.	.
.	.	16e/JJ	.	.	.	.	.
4b\)	.	4f/	-ler	.	.	4D\	al-
.	.	.	.	.	.	.	.
.	.	.	.	16G/LL	.	.	.
.	.	.	.	16F/JJ	.	.	.
=14	=14	=14	=14	=14	=14	=14	=14
4cc\	-ler	16e/LL	Welt	8G/	.	4E\	-ler
.	.	16f/JJ	.	.	.	.	.
.	.	4g/	.	16c\LL	-ler	.	.
.	.	.	.	16B-\JJ	.	.	.
4cc\	Welt	.	.	4A/	Welt	4F\	Welt
.	.	.	.	.	.	.	.
.	.	[8f/	Trost!	.	.	.	.
.	.	.	.	.	.	.	.
2cc;\	Trost!	8f/L]	.	2G;/	Trost!	2C;/	Trost!
.	.	.	.	.	.	.	.
.	.	16e/L	.	.	.	.	.
.	.	16d/JJ	.	.	.	.	.
.	.	4e;/	.	.	.	.	.
.	.	.	.	.	.	.	.
.	.	.	.	.	.	.	.
.	.	.	.	.	.	.	.
=15	=15	=15	=15	=15	=15	=15	=15
4cc\	uns	16e/LL	uns	4A/	uns	4AA/	uns
.	.	16f#/JJ	.	.	.	.	.
.	.	4g/	.	.	.	.	.
.	.	.	.	.	.	.	.
4cc\	S\u3n-	.	.	4A/	S\u3n-	4D\	S\u3n-
.	.	.	.	.	.	.	.
.	.	4f#/	S\u3n-	.	.	.	.
.	.	.	.	.	.	.	.
4b\	-der	.	.	8B/L	-der	8GG/	-der
.	.	.	.	.	.	.	.
.	.	16e/LL	.	8G/J	.	4G\	al-
.	.	16d/JJ	.	.	.	.	.
4a/	al-	16c#/LL	-der	8e\L	al-	.	.
.	.	16B/JJ	.	.	.	.	.
.	.	8A/	al-	16d\L	.	[8F\	-lein
.	.	.	.	16c\JJ	.	.	.
=16	=16	=16	=16	=16	=16	=16	=16
4g/	-lein	(8d/	-lein	8B\L	-lein	8F\L]	.
.	.	.	.	.	.	.	.
.	.	4c/)	.	16c\L	.	8E\J	.
.	.	.	.	16B-\JJ	.	.	.
4a/	du	.	.	8A\L	du	8F\L	du
.	.	.	.	.	.	.	.
.	.	4a/	du	16d\L	.	8F#\J	.
.	.	.	.	16c\JJ	.	.	.
4b\	hast	.	.	8Bn\L	hast	8G\L	hast
.	.	.	.	.	.	.	.
.	.	8g/	.	[8d\J	.	16BB\L	.
.	.	.	.	.	.	16C\JJ	.
4b\	er-	16f#/LL	hast	16d\LL]	.	8D\L	er-
.	.	16e/JJ	.	16c\JJ	.	.	.
.	.	8f#/	er-	16B/LL	er-	8D#\J	.
.	.	.	.	16A/JJ	.	.	.
=17	=17	=17	=17	=17	=17	=17	=17
2b;\	-l\o3st;	2e;/	-l\o3st;	2G;/	-l\o3st;	2E;\	-l\o3st;
.	.	.	.	.	.	.	.
.	.	.	.	.	.	.	.
.	.	.	.	.	.	.	.
.	.	.	.	.	.	.	.
.	.	.	.	.	.	.	.
.	.	.	.	.	.	.	.
.	.	.	.	.	.	.	.
4e/	Je-	4.c/	Je-	4G/	Je-	8E\L	Je-
.	.	.	.	.	.	.	.
.	.	.	.	.	.	8C\J	.
.	.	.	.	.	.	.	.
4d/	.	.	.	4G/	-su,	8G\L	.
.	.	.	.	.	.	.	.
.	.	8B/	.	.	.	8F\J	.
.	.	.	.	.	.	.	.
=18	=18	=18	=18	=18	=18	=18	=18
4g/	.	8c/L	.	4G/	Got-	4.E\	.
.	.	.	.	.	.	.	.
.	.	16d/L	.	.	.	.	.
.	.	16e/JJ	.	.	.	.	.
8a/L	-su,	16f/LL	-su,	8c\L	.	.	.
.	.	16e/J	.	.	.	.	.
8b/J	.	8f/J	.	8d\J	.	8D\	-su,
.	.	.	.	.	.	.	.
4cc\	Got-	4e/	Got-	4G/	.	8C/L	Got-
.	.	.	.	.	.	.	.
.	.	.	.	.	.	8BB/J	.
.	.	.	.	.	.	.	.
4cc\	-tes	[4f/	.	[4A/	.	8AA/L	-tes
.	.	.	.	.	.	.	.
.	.	.	.	.	.	8BB/J	.
.	.	.	.	.	.	.	.
=19	=19	=19	=19	=19	=19	=19	=19
2cc;\	Sohn!	8f/]	.	8A/]	.	2C;/	Sohn!
.	.	.	.	.	.	.	.
.	.	16e/LL	-tes	16G/LL	-tes	.	.
.	.	16d/JJ	.	16F/JJ	.	.	.
.	.	4e;/	Sohn!	4G;/	Sohn!	.	.
.	.	.	.	.	.	.	.
.	.	.	.	.	.	.	.
.	.	.	.	.	.	.	.
4cc\	Un-	8e/	Un-	8c\	Un-	8AA/L	Un-
.	.	.	.	.	.	.	.
.	.	16a/LL	-ser	8d\	-ser	8BB/J	.
.	.	16g#/JJ	.	.	.	.	.
4cc\	-ser	[4a/	Mitt-	[4e\	Mitt-	8C/L	-ser
.	.	.	.	.	.	.	.
.	.	.	.	.	.	8D/J	.
.	.	.	.	.	.	.	.
=20	=20	=20	=20	=20	=20	=20	=20
(4b\	Mitt-	8a/]	.	8e\L]	.	8E/L	Mitt-
.	.	.	.	.	.	.	.
.	.	4g/	.	8d\J	.	8BB/	.
.	.	.	.	.	.	.	.
4a/)	.	.	.	8e\L	.	8C/	.
.	.	.	.	.	.	.	.
.	.	8f#/	.	16d\L	.	8D/J	.
.	.	.	.	16c\JJ	.	.	.
4g;/	-ler	4d;/	-ler	4B;\	-ler	4GG;/	-ler
.	.	.	.	.	.	.	.
.	.	.	.	.	.	.	.
.	.	.	.	.	.	.	.
4a/	bist	8fn/L	bist	[4d\	bist	8D\L	bist
.	.	.	.	.	.	.	.
.	.	8g/J	.	.	.	8E\J	.
.	.	.	.	.	.	.	.
=21	=21	=21	=21	=21	=21	=21	=21
4a/	in	8a/	in	8d\L]	.	8F/L	in
.	.	.	.	.	.	.	.
.	.	16g/LL	dem	8c#\J	.	8AA/J	.
.	.	16f/JJ	.	.	.	.	.
4g/	dem	8f/	h\o3ch-	8d\	in	8BB/L	dem
.	.	.	.	.	.	.	.
.	.	4e/	.	8A/	dem	8C#/J	.
.	.	.	.	.	.	.	.
4f/	h\o3ch-	.	.	(4A/	h\o3ch-	8D/L	h\o3ch-
.	.	.	.	.	.	.	.
.	.	4d/	.	.	.	8FF/J	.
.	.	.	.	.	.	.	.
4e/	-sten	.	.	8B-\)	.	8GG/L	-sten
.	.	.	.	.	.	.	.
.	.	8c#/	-sten	16A/LL	-sten	8AA/J	.
.	.	.	.	16G/JJ	.	.	.
=22	=22	=22	=22	=22	=22	=22	=22
2d;/	Thron,	2A;/	Thron,	2F;/	Thron,	2DD;/	Thron,
.	.	.	.	.	.	.	.
.	.	.	.	.	.	.	.
.	.	.	.	.	.	.	.
.	.	.	.	.	.	.	.
.	.	.	.	.	.	.	.
.	.	.	.	.	.	.	.
.	.	.	.	.	.	.	.
4d/	zu	4A/	zu	8F/L	zu	8D\L	zu
.	.	.	.	.	.	.	.
.	.	.	.	8G/J	.	8E\J	.
.	.	.	.	.	.	.	.
4a/	dir	16d/LL	dir	8A\L	dir	8F\L	dir
.	.	16e/J	.	.	.	.	.
.	.	8f/J	.	8d\J	.	8D\J	.
.	.	.	.	.	.	.	.
=23	=23	=23	=23	=23	=23	=23	=23
4a/	schrei-	4.f/	schrei-	8d\L	schrei-	8BB-/	schrei-
.	.	.	.	.	.	.	.
.	.	.	.	8B\J	.	8BBn/	-en
.	.	.	.	.	.	.	.
4g/	-en	.	.	8G\L	-en	[4C/	wir
.	.	.	.	.	.	.	.
.	.	[8e/	.	16c\L	.	.	.
.	.	.	.	16B\JJ	.	.	.
4a/	wir	16e/LL]	.	4.A/	wir	8C/L]	.
.	.	16d/JJ	.	.	.	.	.
.	.	16e/LL	-en	.	.	8C#/J	.
.	.	16g/JJ	.	.	.	.	.
4b\	aus	16f/LL	wir	.	.	8D\L	aus
.	.	16e/JJ	.	.	.	.	.
.	.	16f#/LL	aus	16G/LL	aus	8D#\J	.
.	.	16a/JJ	.	16F#/JJ	.	.	.
=24	=24	=24	=24	=24	=24	=24	=24
4cc\	Her-	8g/L	Her-	8E/L	Her-	8E\L	Her-
.	.	.	.	.	.	.	.
.	.	8d/J	.	8A/J	.	8F#\	.
.	.	.	.	.	.	.	.
4b\	-zens	8d/	-zens	8B\	-zens	8G\	.
.	.	.	.	.	.	.	.
.	.	4g/	.	4e\	.	8E\J	.
.	.	.	.	.	.	.	.
2a/	Be-	.	.	.	.	8C/L	-zens
.	.	.	.	.	.	.	.
.	.	16f#/LL	.	8c\	.	8AA/J	.
.	.	16e/JJ	.	.	.	.	.
.	.	4f#/	Be-	8A\L	Be-	4D\	Be-
.	.	.	.	.	.	.	.
.	.	.	.	16d\L	.	.	.
.	.	.	.	16c\JJ	.	.	.
=25	=25	=25	=25	=25	=25	=25	=25
2g;/	-gier!	2d;/	-gier!	2B;\	-gier!	2GG;/	-gier!
.	.	.	.	.	.	.	.
.	.	.	.	.	.	.	.
.	.	.	.	.	.	.	.
.	.	.	.	.	.	.	.
.	.	.	.	.	.	.	.
.	.	.	.	.	.	.	.
.	.	.	.	.	.	.	.
4g/	E-	4e/	E-	4.c\	E-	8C/L	E-
.	.	.	.	.	.	.	.
.	.	.	.	.	.	8BB-/	.
.	.	.	.	.	.	.	.
8f/L	.	8f/L	.	.	.	8AA/	.
.	.	.	.	.	.	.	.
8g/J	.	8e/J	.	8B-\	.	8GG/J	.
.	.	.	.	.	.	.	.
=26	=26	=26	=26	=26	=26	=26	=26
4a/	.	4.f/	.	16c\LL	.	8FF/L	.
.	.	.	.	16B-\J	.	.	.
.	.	.	.	8c\J	.	8AA/	.
.	.	.	.	.	.	.	.
4g/	.	.	.	8d\L	.	8BB-/	.
.	.	.	.	.	.	.	.
.	.	16e/LL	.	8G\J	.	8BBn/J	.
.	.	16d/JJ	.	.	.	.	.
4g/	-le-	4.e/	-le-	8c\L	-le-	8C/L	-le-
.	.	.	.	.	.	.	.
.	.	.	.	8B-\J	.	8C#/J	.
.	.	.	.	.	.	.	.
4f/	-i-	.	.	8A/L	.	[4D\	.
.	.	.	.	.	.	.	.
.	.	16d/LL	.	16Bn/L	.	.	.
.	.	16c/JJ	.	16A/JJ	.	.	.
=27	=27	=27	=27	=27	=27	=27	=27
1e;/	-son!	8B/L	.	4G#/	.	8D/L]	.
.	.	.	.	.	.	.	.
.	.	8d/J	.	.	.	16C/L	.
.	.	.	.	.	.	16BB/JJ	.
.	.	2c/	-i-	2A/	-i-	8C/L	-i-
.	.	.	.	.	.	.	.
.	.	.	.	.	.	8D/J	.
.	.	.	.	.	.	.	.
.	.	.	.	.	.	2E;\	-son!
.	.	.	.	.	.	.	.
.	.	.	.	.	.	.	.
.	.	.	.	.	.	.	.
.	.	4B;/	-son!	4G#;/	-son!	.	.
.	.	.	.	.	.	.	.
.	.	.	.	.	.	.	.
.	.	.	.	.	.	.	.
=28||	=28||	=28||	=28||	=28||	=28||	=28||	=28||
2b\	Ky-	2g/	.	2e\	.	(4EE/	.
.	.	.	.	.	.	.	.
.	.	.	.	.	.	.	.
.	.	.	.	.	.	.	.
.	.	.	.	.	.	2E\)	.
.	.	.	.	.	.	.	.
.	.	.	.	.	.	.	.
.	.	.	.	.	.	.	.
2cc\	-ri-	2g/	.	2e\	.	.	.
.	.	.	.	.	.	.	.
.	.	.	.	.	.	.	.
.	.	.	.	.	.	.	.
.	.	.	.	.	.	8D/L	.
.	.	.	.	.	.	.	.
.	.	.	.	.	.	8C/J	.
.	.	.	.	.	.	.	.
=29	=29	=29	=29	=29	=29	=29	=29
2dd;\	-e!	2g;/	.	2B;\	.	2G;\	.
.	.	.	.	.	.	.	.
.	.	.	.	.	.	.	.
.	.	.	.	.	.	.	.
.	.	.	.	.	.	.	.
.	.	.	.	.	.	.	.
.	.	.	.	.	.	.	.
.	.	.	.	.	.	.	.
4r	.	4r	.	4r	.	4r	.
.	.	.	.	.	.	.	.
.	.	.	.	.	.	.	.
.	.	.	.	.	.	.	.
4b\	Gott	4g/	.	4d\	.	8GG/L	.
.	.	.	.	.	.	.	.
.	.	.	.	.	.	8AA/J	.
.	.	.	.	.	.	.	.
=30	=30	=30	=30	=30	=30	=30	=30
4dd\	hei-	4.g/	hei-	4d\	hei-	4BB/	.
.	.	.	.	.	.	.	.
.	.	.	.	.	.	.	.
.	.	.	.	.	.	.	.
4cc\	.	.	.	8e\L	.	8EE/L	.
.	.	.	.	.	.	.	.
.	.	4a/	.	8d\J	.	8FF#/J	.
.	.	.	.	.	.	.	.
4b\	-li-	.	.	4d\	-li-	8GG/L	.
.	.	.	.	.	.	.	.
.	.	4g/	-li-	.	.	8BB/J	.
.	.	.	.	.	.	.	.
4a/	-ger	.	.	8e\L	-ger	8C/L	.
.	.	.	.	.	.	.	.
.	.	8f#/	-ger	16d\L	.	8D/J	.
.	.	.	.	16c\JJ	.	.	.
=31	=31	=31	=31	=31	=31	=31	=31
2g;/	Geist!	2d;/	.	2B;\	.	2GG;/	.
.	.	.	.	.	.	.	.
.	.	.	.	.	.	.	.
.	.	.	.	.	.	.	.
.	.	.	.	.	.	.	.
.	.	.	.	.	.	.	.
.	.	.	.	.	.	.	.
.	.	.	.	.	.	.	.
4b\	Tr\o3st',	4g/	.	4e\	.	8EE/L	.
.	.	.	.	.	.	.	.
.	.	.	.	.	.	8E/J	.
.	.	.	.	.	.	.	.
4cc\	st\a3rk'	[4a/	st\a3rk'	4e\	st\a3rk'	8D/L	.
.	.	.	.	.	.	.	.
.	.	.	.	.	.	8C/J	.
.	.	.	.	.	.	.	.
=32	=32	=32	=32	=32	=32	=32	=32
4dd\	uns	8a/]	.	4.d\	uns	(8BB/	.
.	.	.	.	.	.	.	.
.	.	16g/LL	uns	.	.	4B\)	.
.	.	16f#/JJ	.	.	.	.	.
8b\L	im	4g/	im	.	.	.	.
.	.	.	.	.	.	.	.
8cc\J	.	.	.	8c\	im	8A\	im
.	.	.	.	.	.	.	.
4dd\	Glau-	4.g/	.	4.B\	Glau-	8G\	Glau-
.	.	.	.	.	.	.	.
.	.	.	.	.	.	8F#\	-ben
.	.	.	.	.	.	.	.
4cc\	-ben	.	.	.	.	[4E\	al-
.	.	.	.	.	.	.	.
.	.	8f#/	.	[8A/	-ben	.	.
.	.	.	.	.	.	.	.
=33	=33	=33	=33	=33	=33	=33	=33
4b\	al-	16B/LL	.	8A/]	.	8E/L]	.
.	.	16c/J	.	.	.	.	.
.	.	8d/J	.	4G/	al-	8BB/J	.
.	.	.	.	.	.	.	.
4a/	-ler-	8e/L	.	.	.	8C/L	-ler-
.	.	.	.	.	.	.	.
.	.	16d/L	.	8F#/	-ler-	8D/J	.
.	.	16c/JJ	.	.	.	.	.
4g;/	-meist,	4B;/	.	4G;/	-meist,	4GG;/	-meist,
.	.	.	.	.	.	.	.
.	.	.	.	.	.	.	.
.	.	.	.	.	.	.	.
4a/	dass	4d/	.	8Fn/L	dass	8D\L	dass
.	.	.	.	.	.	.	.
.	.	.	.	8G/J	.	8E\J	.
.	.	.	.	.	.	.	.
=34	=34	=34	=34	=34	=34	=34	=34
4a/	wir	8d/L	.	8A/	wir	8F\	wir
.	.	.	.	.	.	.	.
.	.	8e-/J	.	4c\	.	8F#\	am
.	.	.	.	.	.	.	.
4g/	am	8d/L	.	.	.	[4G\	letz-
.	.	.	.	.	.	.	.
.	.	8c#/J	.	8B-\	am	.	.
.	.	.	.	.	.	.	.
4f/	letz-	4.d/	.	8B-\L	letz-	8G\L]	.
.	.	.	.	.	.	.	.
.	.	.	.	8Bn\J	.	8G#\J	.
.	.	.	.	.	.	.	.
4e/	-ten	.	.	8E/L	-ten	8A\L	-ten
.	.	.	.	.	.	.	.
.	.	8c#/	.	16A/L	.	8AA\J	.
.	.	.	.	16G/JJ	.	.	.
=35	=35	=35	=35	=35	=35	=35	=35
2d;/	End'	2A;/	.	2F#;/	End'	2D;\	End'
.	.	.	.	.	.	.	.
.	.	.	.	.	.	.	.
.	.	.	.	.	.	.	.
.	.	.	.	.	.	.	.
.	.	.	.	.	.	.	.
.	.	.	.	.	.	.	.
.	.	.	.	.	.	.	.
4d/	fr\o3h-	4d/	.	4B\	.	(8GG/	.
.	.	.	.	.	.	.	.
.	.	.	.	.	.	4G\)	.
.	.	.	.	.	.	.	.
4a/	-lich	4e/	.	4c#\	.	.	.
.	.	.	.	.	.	.	.
.	.	.	.	.	.	16F#\LL	.
.	.	.	.	.	.	16E\JJ	.
=36	=36	=36	=36	=36	=36	=36	=36
4a/	ab-	8A/	ab-	4.d\	ab-	8F#\L	ab-
.	.	.	.	.	.	.	.
.	.	(4f#/	-schei-	.	.	8B\J	.
.	.	.	.	.	.	.	.
4g/	-schei-	.	.	.	.	4.E\	-schei-
.	.	.	.	.	.	.	.
.	.	8e/)	.	16c\LL	-schei-	.	.
.	.	.	.	16B\JJ	.	.	.
4a/	-den	4.f#/	-den	8c\	.	.	.
.	.	.	.	.	.	.	.
.	.	.	.	4F#/	-den	16D#\LL	.
.	.	.	.	.	.	16C#\JJ	.
4b\	aus	.	.	.	.	8D#\	-den
.	.	.	.	.	.	.	.
.	.	16e/LL	aus	16G/LL	aus	8BB/	aus
.	.	16d#/JJ	.	16A/JJ	.	.	.
=37	=37	=37	=37	=37	=37	=37	=37
4cc\	die-	8e/	die-	8G/	die-	8E\L	die-
.	.	.	.	.	.	.	.
.	.	4d/	.	4A/	.	8F#\	.
.	.	.	.	.	.	.	.
4b\	-sem	.	.	.	.	8G\	.
.	.	.	.	.	.	.	.
.	.	4g/	-sem	8G/	-sem	8E\J	.
.	.	.	.	.	.	.	.
2a/	E-	.	.	16e\LL	E-	8C/L	-sem
.	.	.	.	16d\JJ	.	.	.
.	.	16f#/LL	E-	4c\	.	8AA/J	.
.	.	16e/JJ	.	.	.	.	.
.	.	4f#/	.	.	.	4D\	E-
.	.	.	.	.	.	.	.
.	.	.	.	16B/LL	.	.	.
.	.	.	.	16A/JJ	.	.	.
=38	=38	=38	=38	=38	=38	=38	=38
2g;/	-lend!	2d;/	-lend!	2B;/	-lend!	2GG;/	-lend!
.	.	.	.	.	.	.	.
.	.	.	.	.	.	.	.
.	.	.	.	.	.	.	.
.	.	.	.	.	.	.	.
.	.	.	.	.	.	.	.
.	.	.	.	.	.	.	.
.	.	.	.	.	.	.	.
4g/	E-	8d/L	E-	8B/L	E-	8G\L	E-
.	.	.	.	.	.	.	.
.	.	8e/	.	8B-/	.	8C#\J	.
.	.	.	.	.	.	.	.
8f/L	.	8d/	.	8A/	.	[4D\	.
.	.	.	.	.	.	.	.
8g/J	.	8e/J	.	8G/J	.	.	.
.	.	.	.	.	.	.	.
=39	=39	=39	=39	=39	=39	=39	=39
4a/	.	8f/L	.	4.F/	.	8D/L]	.
.	.	.	.	.	.	.	.
.	.	8e/	.	.	.	8C/	.
.	.	.	.	.	.	.	.
4g/	.	8d/	.	.	.	8BB/	.
.	.	.	.	.	.	.	.
.	.	8g/J	.	16E/LL	.	8BB-/J	.
.	.	.	.	16D/JJ	.	.	.
4g/	-le-	8c#/L	-le-	8E/L	-le-	4.AA/	-le-
.	.	.	.	.	.	.	.
.	.	8A/J	.	16F/L	.	.	.
.	.	.	.	16G/JJ	.	.	.
4f/	-i-	4d/	.	8A/L	.	.	.
.	.	.	.	.	.	.	.
.	.	.	.	[8B/J	.	8GG#/	.
.	.	.	.	.	.	.	.
=40	=40	=40	=40	=40	=40	=40	=40
1e;/	-son!	4c#/	.	8B/L]	.	8AA/L	.
.	.	.	.	.	.	.	.
.	.	.	.	16A/L	.	8BB/J	.
.	.	.	.	16G#/JJ	.	.	.
.	.	4cn/	-i-	4.A/	.	8C/L	-i-
.	.	.	.	.	.	.	.
.	.	.	.	.	.	8D/J	.
.	.	.	.	.	.	.	.
.	.	2B;/	-son!	.	.	2E;\	-son!
.	.	.	.	.	.	.	.
.	.	.	.	16G#/LL	-i-	.	.
.	.	.	.	16F#/JJ	.	.	.
.	.	.	.	4G#;/	-son!	.	.
.	.	.	.	.	.	.	.
.	.	.	.	.	.	.	.
.	.	.	.	.	.	.	.
==|!	==|!	==|!	==|!	==|!	==|!	==|!	==|!
*-	*-	*-	*-	*-	*-	*-	*-
!!!RWG: Key is interpreted using the Humdrum key tool.
!!!AFT: stage2
!!!END: 1994/07/13/
!!format changes:
!!content changes:
!!public access: complete
!!!KEY: 3540146039
!!!EMD: Converted from MuseData to Humdrum Dec 16, 2000, by Andreas Kornstaedt using muse2kern.
