!!!COM: Bach, Johann Sebastian
!!!OPR: Joh. Seb. Bachs vierstimmige Choralgesänge
!!!XEN: Four-part Chorales
!!!OTL: 49. Ein' feste Burg ist unser Gott
!!!OMV: 1
!!!SCT: BWV 302
!!!SCA: Thematisch-systematisches Verzeichnis der musikalischen Werke Johann Sebastian Bach: Bach-Werke-Verzeichnis (Schmieder)
!!!YOR: Bach Gesellschaft Edition xxxix
!!!EED: Steven Rasmussen
!!!ENC: Steven Rasmussen
!!!CDT: 1685/3//-1750/7/28/
!!!OCY: Deutschland
!!!YEC: Copyright (c) 1994, 2000 Center for Computer Assisted Research in the Humanities
!!!YEM: Rights to all derivative editions reserved
!!!YEM: Refer to licensing agreement for further details
!!!YEN: United States of America
**kern	**silbe	**kern	**kern	**kern
*I:[SOPRANO]	*I:[SOPRANO]	*I:[ALTO]	*I:[TENORE]	*I:[BASSO]
*>[A,A,B]	*	*>[A,A,B]	*>[A,A,B]	*>[A,A,B]
*>A	*	*>A	*>A	*>A
*clefG2	*	*clefG2	*clefGv2	*clefF4
*k[f#c#]	*	*k[f#c#]	*k[f#c#]	*k[f#c#]
*D:	*	*D:	*D:	*D:
*M4/4	*	*M4/4	*M4/4	*M4/4
*tb16	*	*tb16	*tb16	*tb16
=0-	=0-	=0-	=0-	=0-
4dd\	Ein'Er	4a/	4f#\	8d\L
.	.	.	.	.
.	.	.	.	8c#\J
.	.	.	.	.
2ryy	.	2ryy	2ryy	2ryy
.	.	.	.	.
.	.	.	.	.
.	.	.	.	.
.	.	.	.	.
.	.	.	.	.
.	.	.	.	.
.	.	.	.	.
4ryy	.	4ryy	4ryy	4ryy
.	.	.	.	.
.	.	.	.	.
.	.	.	.	.
=1	=1	=1	=1	=1
4dd\	fe-hilft	4d/	4f#\	4B\
.	.	.	.	.
.	.	.	.	.
.	.	.	.	.
4dd\	-steuns	8d/L	8B\L	8A\L
.	.	.	.	.
.	.	8e/J	8c#\J	8G\J
.	.	.	.	.
8a/L	Burgfrei	4f#/	4d\	4F#\
.	.	.	.	.
8b/J	.	.	.	.
.	.	.	.	.
4cc#\	istaus	4g/	4e\	4E\
.	.	.	.	.
.	.	.	.	.
.	.	.	.	.
=2	=2	=2	=2	=2
8dd\L	un-al-	4a/	4.f#\	4D\
.	.	.	.	.
8cc#\J	.	.	.	.
.	.	.	.	.
4b\	-ser-ler	4g#/	.	4E\
.	.	.	.	.
.	.	.	16e\LL	.
.	.	.	16d\JJ	.
4a;/	Gott,Not,	4e;/	4c#;\	4AA;/
.	.	.	.	.
.	.	.	.	.
.	.	.	.	.
4dd\	ein'die	4b\	8F#/L	4BB/
.	.	.	.	.
.	.	.	8G#/J	.
.	.	.	.	.
=3	=3	=3	=3	=3
4cc#\	gu-uns	4e/	4A#/	4C#/
.	.	.	.	.
.	.	.	.	.
.	.	.	.	.
4b\	-tejetzt	4d/	4B\	8D\L
.	.	.	.	.
.	.	.	.	8E\J
.	.	.	.	.
4a/	Wehrhat	4c#/	8f#\L	4F#\
.	.	.	.	.
.	.	.	8e\J	.
.	.	.	.	.
4b\	undbe-	4B/	4d\	8G\L
.	.	.	.	.
.	.	.	.	8F#\J
.	.	.	.	.
=4	=4	=4	=4	=4
(8g/L	Waf--trof-	8c#/	8e\	8E\L
.	.	.	.	.
8f#/J	.	4d/	4A/	8D\J
.	.	.	.	.
4e/)	.	.	.	4AA/
.	.	.	.	.
.	.	8c#/	8G/	.
.	.	.	.	.
4d;/	-fen.-fen.	4d;/	4F#;/	4D;\
.	.	.	.	.
.	.	.	.	.
.	.	.	.	.
=:|!	=:|!	=:|!	=:|!	=:|!
*>B	*	*>B	*>B	*>B
(4d/	Der	4d/	8F#/L	8D\L
.	.	.	.	.
.	.	.	8G/J	8E\J
.	.	.	.	.
2ryy	.	2ryy	2ryy	2ryy
.	.	.	.	.
.	.	.	.	.
.	.	.	.	.
.	.	.	.	.
.	.	.	.	.
.	.	.	.	.
.	.	.	.	.
4ryy	.	4ryy	4ryy	4ryy
.	.	.	.	.
.	.	.	.	.
.	.	.	.	.
=5	=5	=5	=5	=5
4a/)	.	4c#/	4A/	4F#\
.	.	.	.	.
.	.	.	.	.
.	.	.	.	.
4b\	alt'	4d/	8G#/L	8E\L
.	.	.	.	.
.	.	.	8F#/J	8D\J
.	.	.	.	.
4a/	b\o3-	8e/L	8E/L	8C#/L
.	.	.	.	.
.	.	8d/J	8F#/J	8D/J
.	.	.	.	.
4g#/	-se	4B/	4E/	4E\
.	.	.	.	.
.	.	.	.	.
.	.	.	.	.
=6	=6	=6	=6	=6
2a;/	Feind,	2c#;/	2E;/	2AA;/
.	.	.	.	.
.	.	.	.	.
.	.	.	.	.
.	.	.	.	.
.	.	.	.	.
.	.	.	.	.
.	.	.	.	.
4d/	mit	8d/L	4A/	4F#\
.	.	.	.	.
.	.	8e/J	.	.
.	.	.	.	.
4a/	Ernst	4f#/	4d\	8E\L
.	.	.	.	.
.	.	.	.	8D\J
.	.	.	.	.
=7	=7	=7	=7	=7
4b\	er's	8g/L	4d\	4G\
.	.	.	.	.
.	.	8f#/J	.	.
.	.	.	.	.
4cc#\	jetzt	4e/	4A/	4A\
.	.	.	.	.
.	.	.	.	.
.	.	.	.	.
4dd;\	meint,	4f#;/	4A;/	4D;\
.	.	.	.	.
.	.	.	.	.
.	.	.	.	.
4cc#\	gross	4f#/	4A/	4F#\
.	.	.	.	.
.	.	.	.	.
.	.	.	.	.
=8	=8	=8	=8	=8
8dd\	Macht	16f#/LL	8B\L	8BB/L
.	.	16g#/JJ	.	.
8cc#\	und	8a/	8e\J	8C#/J
.	.	.	.	.
4b\	viel	8a/L	8f#\L	8D\L
.	.	.	.	.
.	.	8g#/J	8e\J	8E\J
.	.	.	.	.
4a;/	List	4e;/	4c#;\	4AA;/
.	.	.	.	.
.	.	.	.	.
.	.	.	.	.
4b\	sein	4gn/	4e\	8E\L
.	.	.	.	.
.	.	.	.	8F#\J
.	.	.	.	.
=9	=9	=9	=9	=9
4b\	grau-	4g/	8d\L	4G\
.	.	.	.	.
.	.	.	8e\J	.
.	.	.	.	.
4a/	-sam	8d#/L	4f#\	8F#\L
.	.	.	.	.
.	.	8e/J	.	8E\J
.	.	.	.	.
8b/L	R\u3st-	4f#/	4B\	4D#\
.	.	.	.	.
8a/J	.	.	.	.
.	.	.	.	.
4g/	-zeug	4e/	4B\	4E\
.	.	.	.	.
.	.	.	.	.
.	.	.	.	.
=10	=10	=10	=10	=10
4f#;/	ist,	4d#;/	4B;\	4BB;/
.	.	.	.	.
.	.	.	.	.
.	.	.	.	.
4dd\	auf	4f#/	4B\	4BB/
.	.	.	.	.
.	.	.	.	.
.	.	.	.	.
4cc#\	Erd'n	8f#/L	4A/	4F#\
.	.	.	.	.
.	.	8e/J	.	.
.	.	.	.	.
4b\	ist	8dn/L	8B\L	4G\
.	.	.	.	.
.	.	8e/J	8c#\J	.
.	.	.	.	.
=11	=11	=11	=11	=11
4a/	nicht	8f#/L	4d\	8D/L
.	.	.	.	.
.	.	8e/J	.	8C#/J
.	.	.	.	.
8b/L	sein's	4d/	8G/L	4BB/
.	.	.	.	.
8a/J	.	.	8F#/J	.
.	.	.	.	.
4g/	Glei-	8e/L	4E/	4C#/
.	.	.	.	.
.	.	8A/J	.	.
.	.	.	.	.
4f#/	.	[4d/	16F#/LL	4D\
.	.	.	16G/J	.
.	.	.	8A/J	.
.	.	.	.	.
=12	=12	=12	=12	=12
2e/	.	4d/]	4B\	4GG/
.	.	.	.	.
.	.	.	.	.
.	.	.	.	.
.	.	4c#/	8A/L	4AA/
.	.	.	.	.
.	.	.	8G/J	.
.	.	.	.	.
4d;/	-chen.	4A;/	4F#;/	4DD;/
.	.	.	.	.
.	.	.	.	.
.	.	.	.	.
==|!	==|!	==|!	==|!	==|!
*-	*-	*-	*-	*-
!!!RWG: Key is interpreted using the Humdrum key tool.
!!!AFT: stage2
!!!END: 1994/05/18/
!!format changes:
!!content changes:
!!public access: complete
!!!KEY: 2046423486
!!!EMD: Converted from MuseData to Humdrum Dec 16, 2000, by Andreas Kornstaedt using muse2kern.
