!!!COM: Bach, Johann Sebastian
!!!OPR: Joh. Seb. Bachs vierstimmige Choralgesänge
!!!XEN: Four-part Chorales
!!!OTL: 130. Mitten wir im Leben sind
!!!OMV: 1
!!!SCT: BWV 383
!!!SCA: Thematisch-systematisches Verzeichnis der musikalischen Werke Johann Sebastian Bach: Bach-Werke-Verzeichnis (Schmieder)
!!!YOR: Bach Gesellschaft Edition xxxix
!!!EED: Steven Rasmussen
!!!ENC: Steven Rasmussen
!!!CDT: 1685/3//-1750/7/28/
!!!OCY: Deutschland
!!!YEC: Copyright (c) 1994, 2000 Center for Computer Assisted Research in the Humanities
!!!YEM: Rights to all derivative editions reserved
!!!YEM: Refer to licensing agreement for further details
!!!YEN: United States of America
**kern	**silbe	**kern	**silbe	**kern	**silbe	**kern	**silbe
*I:[SOPRANO]	*I:[SOPRANO]	*I:[ALTO]	*I:[ALTO]	*I:[TENORE]	*I:[TENORE]	*I:[BASSO]	*I:[BASSO]
*>[A,A,B]	*	*>[A,A,B]	*	*>[A,A,B]	*	*>[A,A,B]	*
*>A	*	*>A	*	*>A	*	*>A	*
*clefG2	*	*clefG2	*	*clefGv2	*	*clefF4	*
*k[]	*	*k[]	*	*k[]	*	*k[]	*
*a:	*	*a:	*	*a:	*	*a:	*
*M4/4	*	*M4/4	*	*M4/4	*	*M4/4	*
*tb16	*	*tb16	*	*tb16	*	*tb16	*
=1-	=1-	=1-	=1-	=1-	=1-	=1-	=1-
4g/	Mit-wen	4e/	.	4B\	.	4E\	.
.	.	.	.	.	.	.	.
.	.	.	.	.	.	.	.
.	.	.	.	.	.	.	.
4g/	-tensuch'n	4e/	.	4B\	.	8E\L	.
.	.	.	.	.	.	.	.
.	.	.	.	.	.	8D\J	.
.	.	.	.	.	.	.	.
4a/	wirwir,	4e/	.	4c\	.	8C/L	.
.	.	.	.	.	.	.	.
.	.	.	.	.	.	8BB/J	.
.	.	.	.	.	.	.	.
4b\	imder	4e/	.	4B\	.	8AA/L	.
.	.	.	.	.	.	.	.
.	.	.	.	.	.	8GG#/J	.
.	.	.	.	.	.	.	.
=2	=2	=2	=2	=2	=2	=2	=2
4cc\	Le-H\u3l-	8e/L	Le-H\u3l-	4.A/	Le-H\u3l-	4.AA/	.
.	.	.	.	.	.	.	.
.	.	16f#/L	.	.	.	.	.
.	.	16g#/JJ	.	.	.	.	.
4cc\	-ben-fe	4a/	.	.	.	.	.
.	.	.	.	.	.	.	.
.	.	.	.	8e\	.	8C/	.
.	.	.	.	.	.	.	.
(2b\	sindtu',	4a/	-ben-fe	8f\L	.	8D/L	.
.	.	.	.	.	.	.	.
.	.	.	.	8d\J	.	8BB/J	.
.	.	.	.	.	.	.	.
.	.	4g#/	.	8B\L	-ben-fe	4E\	.
.	.	.	.	.	.	.	.
.	.	.	.	16e\L	.	.	.
.	.	.	.	16d\JJ	.	.	.
=3	=3	=3	=3	=3	=3	=3	=3
2a;/)	.	2e;/	sindtu',	2c;\	sindtu',	2AA;/	.
.	.	.	.	.	.	.	.
.	.	.	.	.	.	.	.
.	.	.	.	.	.	.	.
.	.	.	.	.	.	.	.
.	.	.	.	.	.	.	.
.	.	.	.	.	.	.	.
.	.	.	.	.	.	.	.
4b\	mitdass	4g/	.	4d\	.	8G\L	.
.	.	.	.	.	.	.	.
.	.	.	.	.	.	8F\J	.
.	.	.	.	.	.	.	.
4cc\	demwir	4g/	.	4e\	.	4E\	.
.	.	.	.	.	.	.	.
.	.	.	.	.	.	.	.
.	.	.	.	.	.	.	.
=4	=4	=4	=4	=4	=4	=4	=4
4dd\	TodGnad'	8a/L	.	8f\L	.	8D\L	.
.	.	.	.	.	.	.	.
.	.	8g/J	.	8e\J	.	8E\J	.
.	.	.	.	.	.	.	.
4a/	um-er-	4f/	.	4d\	.	4F\	.
.	.	.	.	.	.	.	.
.	.	.	.	.	.	.	.
.	.	.	.	.	.	.	.
4g/	-fan--lan-	8f/L	.	8d\L	.	8BB/L	.
.	.	.	.	.	.	.	.
.	.	[8e/J	.	16c\L	.	8C/J	.
.	.	.	.	16B-\JJ	.	.	.
4f/	.	8e/L]	.	8A/L	.	4D\	.
.	.	.	.	.	.	.	.
.	.	16d/L	.	16Bn/L	.	.	.
.	.	16c/JJ	.	16A/JJ	.	.	.
=5	=5	=5	=5	=5	=5	=5	=5
1e;/	-gen;-gen?	1B;/	.	1G#;/	.	1E;\	.
.	.	.	.	.	.	.	.
.	.	.	.	.	.	.	.
.	.	.	.	.	.	.	.
.	.	.	.	.	.	.	.
.	.	.	.	.	.	.	.
.	.	.	.	.	.	.	.
.	.	.	.	.	.	.	.
.	.	.	.	.	.	.	.
.	.	.	.	.	.	.	.
.	.	.	.	.	.	.	.
.	.	.	.	.	.	.	.
.	.	.	.	.	.	.	.
.	.	.	.	.	.	.	.
.	.	.	.	.	.	.	.
.	.	.	.	.	.	.	.
=6:|!	=6:|!	=6:|!	=6:|!	=6:|!	=6:|!	=6:|!	=6:|!
*>B	*	*>B	*	*>B	*	*>B	*
4r	.	4r	.	4r	.	4r	.
.	.	.	.	.	.	.	.
.	.	.	.	.	.	.	.
.	.	.	.	.	.	.	.
4d/	Das	4B/	.	4G/	.	8G\L	.
.	.	.	.	.	.	.	.
.	.	.	.	.	.	8F\J	.
.	.	.	.	.	.	.	.
4e/	bist	8c/L	.	4G/	.	4E\	.
.	.	.	.	.	.	.	.
.	.	8B/J	.	.	.	.	.
.	.	.	.	.	.	.	.
4f/	du	4c/	.	8c\L	.	4A\	.
.	.	.	.	.	.	.	.
.	.	.	.	8A\J	.	.	.
.	.	.	.	.	.	.	.
=7	=7	=7	=7	=7	=7	=7	=7
4.g/	Herr	8d/L	.	4B\	.	8G/L	.
.	.	.	.	.	.	.	.
.	.	8e/J	.	.	.	8GG/J	.
.	.	.	.	.	.	.	.
.	.	8e/L	.	8c/L	.	8AA/L	.
.	.	.	.	.	.	.	.
8f/	al-	8d/J	.	8G/J	.	8BB/J	.
.	.	.	.	.	.	.	.
4e/	-lei-	8d/L	.	[4G/	.	4C/	.
.	.	.	.	.	.	.	.
.	.	[8c/J	.	.	.	.	.
.	.	.	.	.	.	.	.
4d/	.	8c/L]	.	8.G/L]	.	4GG/	.
.	.	.	.	.	.	.	.
.	.	8B/J	.	.	.	.	.
.	.	.	.	16F/Jk	.	.	.
=8	=8	=8	=8	=8	=8	=8	=8
2c;/	-ne.	2G;/	.	2E;/	.	2CC;/	.
.	.	.	.	.	.	.	.
.	.	.	.	.	.	.	.
.	.	.	.	.	.	.	.
.	.	.	.	.	.	.	.
.	.	.	.	.	.	.	.
.	.	.	.	.	.	.	.
.	.	.	.	.	.	.	.
4r	.	4r	.	4r	.	4r	.
.	.	.	.	.	.	.	.
.	.	.	.	.	.	.	.
.	.	.	.	.	.	.	.
4c/	Uns	4G/	.	4G/	.	8E\L	.
.	.	.	.	.	.	.	.
.	.	.	.	.	.	8F\J	.
.	.	.	.	.	.	.	.
=9	=9	=9	=9	=9	=9	=9	=9
4g/	reu-	4c/	.	4G/	.	8E\L	.
.	.	.	.	.	.	.	.
.	.	.	.	.	.	8D\J	.
.	.	.	.	.	.	.	.
4g/	-et	8c/L	.	4c\	.	8E\L	.
.	.	.	.	.	.	.	.
.	.	8e/J	.	.	.	8C\J	.
.	.	.	.	.	.	.	.
4a/	uns'-	4f/	.	8c\L	.	4F\	.
.	.	.	.	.	.	.	.
.	.	.	.	8d\J	.	.	.
.	.	.	.	.	.	.	.
4b\	-re	8f/L	.	4d\	.	4GG#/	.
.	.	.	.	.	.	.	.
.	.	8e/J	.	.	.	.	.
.	.	.	.	.	.	.	.
=10	=10	=10	=10	=10	=10	=10	=10
4cc\	Mis-	8e/L	Mis-	8c\L	.	8AA/L	Mis-
.	.	.	.	.	.	.	.
.	.	16a/L	.	8d\J	.	8BB/	.
.	.	16g#/JJ	.	.	.	.	.
4cc\	-se-	[4a/	.	[4e\	.	8C/	.
.	.	.	.	.	.	.	.
.	.	.	.	.	.	8D/J	.
.	.	.	.	.	.	.	.
(2b\	-tat,	8a/L]	.	8e\L]	.	2E\	-se-
.	.	.	.	.	.	.	.
.	.	16g#/L	.	8B\J	.	.	.
.	.	16f#/JJ	.	.	.	.	.
.	.	4g#/	-se-	8e\L	.	.	.
.	.	.	.	.	.	.	.
.	.	.	.	8d\J	.	.	.
.	.	.	.	.	.	.	.
=11	=11	=11	=11	=11	=11	=11	=11
2a;/)	.	2e;/	-tat,	2c;\	.	2AA;/	-tat,
.	.	.	.	.	.	.	.
.	.	.	.	.	.	.	.
.	.	.	.	.	.	.	.
.	.	.	.	.	.	.	.
.	.	.	.	.	.	.	.
.	.	.	.	.	.	.	.
.	.	.	.	.	.	.	.
4b\	die	4g#/	.	4e\	.	4E\	.
.	.	.	.	.	.	.	.
.	.	.	.	.	.	.	.
.	.	.	.	.	.	.	.
4cc\	dich,	4a/	.	4e\	.	8A\L	.
.	.	.	.	.	.	.	.
.	.	.	.	.	.	8G\J	.
.	.	.	.	.	.	.	.
=12	=12	=12	=12	=12	=12	=12	=12
4dd\	Herr,	8a/L	.	4d\	.	8F\L	.
.	.	.	.	.	.	.	.
.	.	8g/J	.	.	.	8E\J	.
.	.	.	.	.	.	.	.
4a/	er-	4f/	.	8d\L	.	4D\	.
.	.	.	.	.	.	.	.
.	.	.	.	8c\J	.	.	.
.	.	.	.	.	.	.	.
4g/	-z\u3r-	4e/	.	4B-\	.	8D/L	.
.	.	.	.	.	.	.	.
.	.	.	.	.	.	8C#/J	.
.	.	.	.	.	.	.	.
4f/	-net	8e/L	.	4A/	.	8D\L	.
.	.	.	.	.	.	.	.
.	.	8d/J	.	.	.	8F\J	.
.	.	.	.	.	.	.	.
=13	=13	=13	=13	=13	=13	=13	=13
2e;/	hat.	2c#;/	.	2A;/	.	2A;\	.
.	.	.	.	.	.	.	.
.	.	.	.	.	.	.	.
.	.	.	.	.	.	.	.
.	.	.	.	.	.	.	.
.	.	.	.	.	.	.	.
.	.	.	.	.	.	.	.
.	.	.	.	.	.	.	.
4r	.	4r	.	4r	.	4r	.
.	.	.	.	.	.	.	.
.	.	.	.	.	.	.	.
.	.	.	.	.	.	.	.
4a/	Hei-	8f/L	.	4c\	.	4FF/	.
.	.	.	.	.	.	.	.
.	.	8e/J	.	.	.	.	.
.	.	.	.	.	.	.	.
=14	=14	=14	=14	=14	=14	=14	=14
4g/	-li-	4d/	.	8c\L	.	4GG/	.
.	.	.	.	.	.	.	.
.	.	.	.	8B\J	.	.	.
.	.	.	.	.	.	.	.
4e/	-ger	8d/L	.	4A/	.	4AA/	.
.	.	.	.	.	.	.	.
.	.	8c/J	.	.	.	.	.
.	.	.	.	.	.	.	.
4f/	Her-	4d/	.	4A/	.	8D/L	.
.	.	.	.	.	.	.	.
.	.	.	.	.	.	8C/J	.
.	.	.	.	.	.	.	.
8.g/L	-re	4d/	.	8G/L	.	8BB/L	.
.	.	.	.	.	.	.	.
.	.	.	.	8B/J	.	8GG/J	.
16f/Jk	.	.	.	.	.	.	.
=15	=15	=15	=15	=15	=15	=15	=15
2e;/	Gott,	2c;/	.	2c;\	.	2AA;/	.
.	.	.	.	.	.	.	.
.	.	.	.	.	.	.	.
.	.	.	.	.	.	.	.
.	.	.	.	.	.	.	.
.	.	.	.	.	.	.	.
.	.	.	.	.	.	.	.
.	.	.	.	.	.	.	.
4r	.	4r	.	4r	.	4r	.
.	.	.	.	.	.	.	.
.	.	.	.	.	.	.	.
.	.	.	.	.	.	.	.
4a/	hei-	4e/	.	4c\	.	4AA/	.
.	.	.	.	.	.	.	.
.	.	.	.	.	.	.	.
.	.	.	.	.	.	.	.
=16	=16	=16	=16	=16	=16	=16	=16
4g/	-li-	4d/	.	4B\	.	4BB/	.
.	.	.	.	.	.	.	.
.	.	.	.	.	.	.	.
.	.	.	.	.	.	.	.
4e/	-ger	8d/L	.	4G/	.	4C/	.
.	.	.	.	.	.	.	.
.	.	16c/L	.	.	.	.	.
.	.	16B/JJ	.	.	.	.	.
4f/	star-	4A/	.	8F/L	.	4D\	.
.	.	.	.	.	.	.	.
.	.	.	.	8E/J	.	.	.
.	.	.	.	.	.	.	.
4g/	-ker	8d/L	.	8D/L	.	8BB/L	.
.	.	.	.	.	.	.	.
.	.	8B/J	.	8G/J	.	8GG/J	.
.	.	.	.	.	.	.	.
=17	=17	=17	=17	=17	=17	=17	=17
2e;/	Gott,	2c;/	.	2G;/	.	2C;/	.
.	.	.	.	.	.	.	.
.	.	.	.	.	.	.	.
.	.	.	.	.	.	.	.
.	.	.	.	.	.	.	.
.	.	.	.	.	.	.	.
.	.	.	.	.	.	.	.
.	.	.	.	.	.	.	.
4a/	hei-	4e/	.	4c\	.	8AA/L	.
.	.	.	.	.	.	.	.
.	.	.	.	.	.	8C/J	.
.	.	.	.	.	.	.	.
4g/	-li-	4e/	.	4B\	.	8E\L	.
.	.	.	.	.	.	.	.
.	.	.	.	.	.	8D\J	.
.	.	.	.	.	.	.	.
=18	=18	=18	=18	=18	=18	=18	=18
4a/	-ger	4e/	.	4c\	.	8C/L	.
.	.	.	.	.	.	.	.
.	.	.	.	.	.	8BB/J	.
.	.	.	.	.	.	.	.
4b\	barm-	4e/	.	4B\	.	8AA/L	.
.	.	.	.	.	.	.	.
.	.	.	.	.	.	8GG#/J	.
.	.	.	.	.	.	.	.
4cc\	-herz'-	8e/L	.	4A/	.	4AA/	.
.	.	.	.	.	.	.	.
.	.	8f/J	.	.	.	.	.
.	.	.	.	.	.	.	.
8b/L	-ger	8g/L	.	4d\	.	4BB/	.
.	.	.	.	.	.	.	.
8a/J	.	8f/J	.	.	.	.	.
.	.	.	.	.	.	.	.
=19	=19	=19	=19	=19	=19	=19	=19
4g/	Hei-	8f/L	.	8G\L	.	4C/	.
.	.	.	.	.	.	.	.
.	.	[8e/J	.	16c\L	.	.	.
.	.	.	.	16B\JJ	.	.	.
4f/	.	8e/L]	.	8A/L	.	4D\	.
.	.	.	.	.	.	.	.
.	.	16d/L	.	16B/L	.	.	.
.	.	16c/JJ	.	16A/JJ	.	.	.
4e;/	-land,	4B;/	.	4G#;/	.	4E;\	.
.	.	.	.	.	.	.	.
.	.	.	.	.	.	.	.
.	.	.	.	.	.	.	.
4d/	du	4B-/	.	4Gn/	.	4G\	.
.	.	.	.	.	.	.	.
.	.	.	.	.	.	.	.
.	.	.	.	.	.	.	.
=20	=20	=20	=20	=20	=20	=20	=20
2a/	e-	4c/	e-	4A/	e-	8F\L	e-
.	.	.	.	.	.	.	.
.	.	.	.	.	.	8E\	.
.	.	.	.	.	.	.	.
.	.	4.f/	.	4.d\	.	8D\	.
.	.	.	.	.	.	.	.
.	.	.	.	.	.	8C\J	.
.	.	.	.	.	.	.	.
4g/	-wi-	.	.	.	.	8BB/L	-wi-
.	.	.	.	.	.	.	.
.	.	4e/	-wi-	8B\	-wi-	8GG/J	.
.	.	.	.	.	.	.	.
4f/	-ger	.	.	8c/L	-ger	8AA/L	-ger
.	.	.	.	.	.	.	.
.	.	8d/	-ger	8G/J	.	8BB/J	.
.	.	.	.	.	.	.	.
=21	=21	=21	=21	=21	=21	=21	=21
2e;/	Gott,	2c;/	.	2G;/	.	2C;/	.
.	.	.	.	.	.	.	.
.	.	.	.	.	.	.	.
.	.	.	.	.	.	.	.
.	.	.	.	.	.	.	.
.	.	.	.	.	.	.	.
.	.	.	.	.	.	.	.
.	.	.	.	.	.	.	.
4a/	lass	4e/	.	4c\	.	8C/L	.
.	.	.	.	.	.	.	.
.	.	.	.	.	.	8D/J	.
.	.	.	.	.	.	.	.
4g/	uns	8e/L	.	8c\L	.	4E\	.
.	.	.	.	.	.	.	.
.	.	8d/J	.	8B-\J	.	.	.
.	.	.	.	.	.	.	.
=22	=22	=22	=22	=22	=22	=22	=22
4a/	nicht	4c/	.	8A/L	.	8F\L	.
.	.	.	.	.	.	.	.
.	.	.	.	8G/J	.	8E\J	.
.	.	.	.	.	.	.	.
4b\	ver-	4d/	.	4F/	.	4D\	.
.	.	.	.	.	.	.	.
.	.	.	.	.	.	.	.
.	.	.	.	.	.	.	.
8cc\L	-sin-	8e/	.	8G\L	.	4C/	.
.	.	.	.	.	.	.	.
8b\J	.	4g/	.	8e\	.	.	.
.	.	.	.	.	.	.	.
4a/	.	.	.	8B\	.	4D\	.
.	.	.	.	.	.	.	.
.	.	8f#/	.	16d\L	.	.	.
.	.	.	.	16c\JJ	.	.	.
=23	=23	=23	=23	=23	=23	=23	=23
2g;/	-ken	2g;/	.	2B;\	.	2E;\	.
.	.	.	.	.	.	.	.
.	.	.	.	.	.	.	.
.	.	.	.	.	.	.	.
.	.	.	.	.	.	.	.
.	.	.	.	.	.	.	.
.	.	.	.	.	.	.	.
.	.	.	.	.	.	.	.
4cc\	in	4g/	.	4e\	.	8E\L	.
.	.	.	.	.	.	.	.
.	.	.	.	.	.	8F\J	.
.	.	.	.	.	.	.	.
4b\	der	4g/	.	8d\L	.	4G\	.
.	.	.	.	.	.	.	.
.	.	.	.	8e\J	.	.	.
.	.	.	.	.	.	.	.
=24	=24	=24	=24	=24	=24	=24	=24
4dd\	bit-	8a/L	.	8f\L	.	8D\L	.
.	.	.	.	.	.	.	.
.	.	8g/J	.	8e\J	.	8E\J	.
.	.	.	.	.	.	.	.
4a/	-tern	8f/L	.	8d\L	.	4F\	.
.	.	.	.	.	.	.	.
.	.	8e/J	.	8c\J	.	.	.
.	.	.	.	.	.	.	.
4g/	To-	8d/L	.	8B\L	.	8F\L	.
.	.	.	.	.	.	.	.
.	.	8e/J	.	8c#\J	.	8E\J	.
.	.	.	.	.	.	.	.
4f/	-des-	8A/L	.	8d\L	.	8D\L	.
.	.	.	.	.	.	.	.
.	.	8d/J	.	8A\J	.	8F\J	.
.	.	.	.	.	.	.	.
=25	=25	=25	=25	=25	=25	=25	=25
2e;/	-not.	2c#;/	.	2A;/	.	2A;\	.
.	.	.	.	.	.	.	.
.	.	.	.	.	.	.	.
.	.	.	.	.	.	.	.
.	.	.	.	.	.	.	.
.	.	.	.	.	.	.	.
.	.	.	.	.	.	.	.
.	.	.	.	.	.	.	.
4r	.	4r	.	4r	.	4r	.
.	.	.	.	.	.	.	.
.	.	.	.	.	.	.	.
.	.	.	.	.	.	.	.
4d/	Ky-	4d/	Ky-	8A/L	.	8F\L	.
.	.	.	.	.	.	.	.
.	.	.	.	8G/J	.	8E\J	.
.	.	.	.	.	.	.	.
=26	=26	=26	=26	=26	=26	=26	=26
2a/	-rie	4d/	-rie	8F/L	.	4D\	.
.	.	.	.	.	.	.	.
.	.	.	.	8E/J	.	.	.
.	.	.	.	.	.	.	.
.	.	8c/L	e-	4F/	.	8AA/L	.
.	.	.	.	.	.	.	.
.	.	8d/J	.	.	.	8BB/J	.
.	.	.	.	.	.	.	.
4g/	e-	[4e/	-lei-	8E/L	.	8C/L	.
.	.	.	.	.	.	.	.
.	.	.	.	[8A/	.	8C#/J	.
.	.	.	.	.	.	.	.
4f/	-lei-	8e/L]	.	8A/]	.	4D\	.
.	.	.	.	.	.	.	.
.	.	16d/L	.	16B/L	.	.	.
.	.	16c/JJ	.	16A/JJ	.	.	.
=27	=27	=27	=27	=27	=27	=27	=27
1e;/	-son!	1B;/	-son!	1G#;/	.	1E;\	.
.	.	.	.	.	.	.	.
.	.	.	.	.	.	.	.
.	.	.	.	.	.	.	.
.	.	.	.	.	.	.	.
.	.	.	.	.	.	.	.
.	.	.	.	.	.	.	.
.	.	.	.	.	.	.	.
.	.	.	.	.	.	.	.
.	.	.	.	.	.	.	.
.	.	.	.	.	.	.	.
.	.	.	.	.	.	.	.
.	.	.	.	.	.	.	.
.	.	.	.	.	.	.	.
.	.	.	.	.	.	.	.
.	.	.	.	.	.	.	.
==|!	==|!	==|!	==|!	==|!	==|!	==|!	==|!
*-	*-	*-	*-	*-	*-	*-	*-
!!!RWG: Key is interpreted using the Humdrum key tool.
!!!AFT: stage2
!!!END: 1994/07/18/
!!format changes:
!!content changes:
!!public access: complete
!!!KEY: 4060195861
!!!EMD: Converted from MuseData to Humdrum Dec 16, 2000, by Andreas Kornstaedt using muse2kern.
