!!!COM: Bach, Johann Sebastian
!!!OPR: Joh. Seb. Bachs vierstimmige Choralgesänge
!!!XEN: Four-part Chorales
!!!OTL: 87. Herzlich lieb hab' ich dich, o Herr
!!!OMV: 1
!!!SCT: BWV 340
!!!SCA: Thematisch-systematisches Verzeichnis der musikalischen Werke Johann Sebastian Bach: Bach-Werke-Verzeichnis (Schmieder)
!!!YOR: Bach Gesellschaft Edition xxxix
!!!EED: Steven Rasmussen
!!!ENC: Steven Rasmussen
!!!CDT: 1685/3//-1750/7/28/
!!!OCY: Deutschland
!!!YEC: Copyright (c) 1994, 2000 Center for Computer Assisted Research in the Humanities
!!!YEM: Rights to all derivative editions reserved
!!!YEM: Refer to licensing agreement for further details
!!!YEN: United States of America
**kern	**silbe	**kern	**kern	**kern
*I:[SOPRANO]	*I:[SOPRANO]	*I:[ALTO]	*I:[TENORE]	*I:[BASSO]
*>[A,A,B]	*	*>[A,A,B]	*>[A,A,B]	*>[A,A,B]
*>A	*	*>A	*>A	*>A
*clefG2	*	*clefG2	*clefGv2	*clefF4
*k[]	*	*k[]	*k[]	*k[]
*C:	*	*C:	*C:	*C:
*M4/4	*	*M4/4	*M4/4	*M4/4
*tb16	*	*tb16	*tb16	*tb16
=0-	=0-	=0-	=0-	=0-
4cc\	Herz-Die	4g/	4e\	4C/
.	.	.	.	.
.	.	.	.	.
.	.	.	.	.
2ryy	.	2ryy	2ryy	2ryy
.	.	.	.	.
.	.	.	.	.
.	.	.	.	.
.	.	.	.	.
.	.	.	.	.
.	.	.	.	.
.	.	.	.	.
4ryy	.	4ryy	4ryy	4ryy
.	.	.	.	.
.	.	.	.	.
.	.	.	.	.
=1	=1	=1	=1	=1
4b\	-lichganz'	8g/L	4d\	4G\
.	.	.	.	.
.	.	8f/J	.	.
.	.	.	.	.
4a/	liebWelt	4e/	8d\L	4A\
.	.	.	.	.
.	.	.	8c\J	.
.	.	.	.	.
8g/L	hab'nicht	4e/	4B\	8E\L
.	.	.	.	.
8f/J	.	.	.	8D\J
.	.	.	.	.
4e/	icher-	8e/L	8c\L	4C/
.	.	.	.	.
.	.	8d/J	8B\J	.
.	.	.	.	.
=2	=2	=2	=2	=2
4a/	dich,-freu-	4c/	8A/L	8F\L
.	.	.	.	.
.	.	.	8B/J	8G\J
.	.	.	.	.
4a/	o-et	4f/	4c\	8A\L
.	.	.	.	.
.	.	.	.	8B\J
.	.	.	.	.
4g;/	Herr,mich,	4e;/	4c;\	4c;\
.	.	.	.	.
.	.	.	.	.
.	.	.	.	.
4cc\	ichnach	8e/L	8c\L	4A\
.	.	.	.	.
.	.	8f/J	8d\J	.
.	.	.	.	.
=3	=3	=3	=3	=3
4b\	bitt'Himm'l	4g/	8e\L	4E\
.	.	.	.	.
.	.	.	8d\J	.
.	.	.	.	.
4a/	wollstund	8f/L	4c\	4F\
.	.	.	.	.
.	.	8e/J	.	.
.	.	.	.	.
8g/L	seinErd'	4d/	4d\	4BB/
.	.	.	.	.
8f/J	.	.	.	.
.	.	.	.	.
4e/	vonnicht	8c/L	4G/	8C/L
.	.	.	.	.
.	.	8d/J	.	8BB/J
.	.	.	.	.
=4	=4	=4	=4	=4
4a/	mirfra-	8e/L	8c\L	8AA/L
.	.	.	.	.
.	.	8d#/J	8B\J	8BB/J
.	.	.	.	.
4a/	nicht-ge	8e/L	8A\L	8C#/L
.	.	.	.	.
.	.	8f#/J	8c\J	8D#/J
.	.	.	.	.
4g;/	fernich,	(8f#/L	4B;\	4E;\
.	.	.	.	.
.	.	8e;/J)	.	.
.	.	.	.	.
4g/	mitwenn	4e/	8c\L	4Cn/
.	.	.	.	.
.	.	.	8B\J	.
.	.	.	.	.
=5	=5	=5	=5	=5
4a/	dei-ich	8d/L	4A/	4F\
.	.	.	.	.
.	.	8c/J	.	.
.	.	.	.	.
4b\	-nernur,	4f/	4d\	8E\L
.	.	.	.	.
.	.	.	.	8D\J
.	.	.	.	.
8cc\L	HuldHerr,	4e/	8c\L	4.A\
.	.	.	.	.
8dd\J	.	.	8B\J	.
.	.	.	.	.
4ee\	unddich	4a/	4c\	.
.	.	.	.	.
.	.	.	.	8G\
.	.	.	.	.
=6	=6	=6	=6	=6
2dd\	Gna-ha-	4a/	4c\	8F\L
.	.	.	.	.
.	.	.	.	8D\J
.	.	.	.	.
.	.	8g/L	4B\	4G\
.	.	.	.	.
.	.	8f/J	.	.
.	.	.	.	.
4cc;\	-de.-be.	4e;/	4G;/	4C;/
.	.	.	.	.
.	.	.	.	.
.	.	.	.	.
=:|!	=:|!	=:|!	=:|!	=:|!
*>B	*	*>B	*>B	*>B
4cc\	Und	4g/	4e\	8c\L
.	.	.	.	.
.	.	.	.	8B\J
.	.	.	.	.
2ryy	.	2ryy	2ryy	2ryy
.	.	.	.	.
.	.	.	.	.
.	.	.	.	.
.	.	.	.	.
.	.	.	.	.
.	.	.	.	.
.	.	.	.	.
4ryy	.	4ryy	4ryy	4ryy
.	.	.	.	.
.	.	.	.	.
.	.	.	.	.
=7	=7	=7	=7	=7
4cc\	wenn	4a/	8e\L	4.A\
.	.	.	.	.
.	.	.	8c\J	.
.	.	.	.	.
4dd\	mir	4b\	8f\L	.
.	.	.	.	.
.	.	.	8e\J	8G#\
.	.	.	.	.
4cc\	gleich	4a/	4.e\	8A\L
.	.	.	.	.
.	.	.	.	8B\J
.	.	.	.	.
8a/L	mein	4e/	.	8c\L
.	.	.	.	.
8b/J	.	.	8d\	8B\J
.	.	.	.	.
=8	=8	=8	=8	=8
4.cc\	Herz	4e/	8c\L	8A\L
.	.	.	.	.
.	.	.	8B\J	8G\J
.	.	.	.	.
.	.	4d/	4A/	8F#\L
.	.	.	.	.
8dd\	zer-	.	.	8D\J
.	.	.	.	.
4b;\	-bricht,	4d;/	4G;/	4G;\
.	.	.	.	.
.	.	.	.	.
.	.	.	.	.
4b\	so	4g/	4d\	8G\L
.	.	.	.	.
.	.	.	.	8Fn\J
.	.	.	.	.
=9	=9	=9	=9	=9
4cc\	bist	4g/	4e\	8E\L
.	.	.	.	.
.	.	.	.	8D\J
.	.	.	.	.
4dd\	doch	4g/	4f\	8C/L
.	.	.	.	.
.	.	.	.	8BB/J
.	.	.	.	.
8cc\L	du	4g/	4e\	4C/
.	.	.	.	.
8b\J	.	.	.	.
.	.	.	.	.
8a/L	mein'	4f/	8A/L	4D\
.	.	.	.	.
8b/J	.	.	8G#/J	.
.	.	.	.	.
=10	=10	=10	=10	=10
4.cc\	Zu-	4.e/	8A/L	8AA/L
.	.	.	.	.
.	.	.	8E/J	8BB/J
.	.	.	.	.
.	.	.	4A/	8C/L
.	.	.	.	.
8dd\	-ver-	8f#/	.	8AA/J
.	.	.	.	.
4b;\	-sicht,	4g#;/	4B;\	4E;\
.	.	.	.	.
.	.	.	.	.
.	.	.	.	.
4ee\	mein	8a/L	4A/	4C#/
.	.	.	.	.
.	.	8gn/J	.	.
.	.	.	.	.
=11	=11	=11	=11	=11
8ff\L	Heil	4f/	8d\L	4D\
.	.	.	.	.
8ee\J	.	.	8c\J	.
.	.	.	.	.
4dd\	und	4g/	4B\	8G\L
.	.	.	.	.
.	.	.	.	8F\J
.	.	.	.	.
8ee\L	mei-	8g/L	4B\	4E\
.	.	.	.	.
8dd\J	.	8f/J	.	.
.	.	.	.	.
4cc\	-nes	4e/	4c\	8A\L
.	.	.	.	.
.	.	.	.	8G\J
.	.	.	.	.
=12	=12	=12	=12	=12
4cc\	Her-	4a/	4d\	8F\L
.	.	.	.	.
.	.	.	.	8D\J
.	.	.	.	.
4b\	-zens	4g/	8e\L	4G\
.	.	.	.	.
.	.	.	8f\J	.
.	.	.	.	.
4cc;\	Trost,	4g;/	4e;\	4C;/
.	.	.	.	.
.	.	.	.	.
.	.	.	.	.
4b\	der	4g/	4d\	4G\
.	.	.	.	.
.	.	.	.	.
.	.	.	.	.
=13	=13	=13	=13	=13
4cc\	mich	4a/	4d\	8G\L
.	.	.	.	.
.	.	.	.	8F#\J
.	.	.	.	.
4b\	durch	8a/L	8d\L	8G\L
.	.	.	.	.
.	.	8g/J	8e\J	8E\J
.	.	.	.	.
8a/L	sein	8g/L	8e\L	8C/L
.	.	.	.	.
8b/J	.	8f#/J	8d\J	8D/J
.	.	.	.	.
4g/	Blut	8f#/L	8B\L	8E\L
.	.	.	.	.
.	.	8e/J	8c\J	8C\J
.	.	.	.	.
=14	=14	=14	=14	=14
8g/L	hat	4e/	4c\	4AA/
.	.	.	.	.
8a/J	.	.	.	.
.	.	.	.	.
4f#/	er-	4d/	8A\L	4D\
.	.	.	.	.
.	.	.	16B\L	.
.	.	.	16c\JJ	.
4g;/	-l\o3st,	4d;/	4B;\	4GG;/
.	.	.	.	.
.	.	.	.	.
.	.	.	.	.
4ee\	Herr	4c/	8G/L	4C/
.	.	.	.	.
.	.	.	8A/J	.
.	.	.	.	.
=15	=15	=15	=15	=15
4dd\	Je-	8d/L	4B\	8G\L
.	.	.	.	.
.	.	8e/J	.	8G#\J
.	.	.	.	.
4cc\	-su	8e/L	8A/L	4A\
.	.	.	.	.
.	.	8d#/J	8F#/J	.
.	.	.	.	.
4b;\	Christ!	4e;/	4G#;/	4E;\
.	.	.	.	.
.	.	.	.	.
.	.	.	.	.
4ee\	Herr	8e/L	8c\L	4AA/
.	.	.	.	.
.	.	8dn/J	8B\J	.
.	.	.	.	.
=16	=16	=16	=16	=16
8ff\L	Je-	8c/L	8A\L	4A\
.	.	.	.	.
8ee\J	.	8e/J	8c\J	.
.	.	.	.	.
4dd\	-su	8g#/L	8d\L	8B\L
.	.	.	.	.
.	.	8a/J	8f\J	8A\J
.	.	.	.	.
8ee\L	Christ,	4b\	4B\	4G#\
.	.	.	.	.
8dd\J	.	.	.	.
.	.	.	.	.
8cc\L	mein	4e/	4c\	8A\L
.	.	.	.	.
8b\J	.	.	.	8Gn\J
.	.	.	.	.
=17	=17	=17	=17	=17
8a\L	Gott	8e/L	8c\L	4F#\
.	.	.	.	.
8dd\J	.	8d/J	8A\J	.
.	.	.	.	.
4b\	und	4e/	8B/L	8G#\L
.	.	.	.	.
.	.	.	8G#/J	8E\J
.	.	.	.	.
4cc;\	Herr!	4e;/	4A;/	4A;\
.	.	.	.	.
.	.	.	.	.
.	.	.	.	.
4cc\	in	8cc\L	4Gn/	4E\
.	.	.	.	.
.	.	8b-\J	.	.
.	.	.	.	.
=18	=18	=18	=18	=18
4cc\	Schan-	8a/L	8c\L	8F\L
.	.	.	.	.
.	.	8g/J	8B-\J	8G\J
.	.	.	.	.
4cc\	-den	8f/L	4A/	4A\
.	.	.	.	.
.	.	8e/J	.	.
.	.	.	.	.
4dd\	lass	4d/	8A/L	4BB/
.	.	.	.	.
.	.	.	8G/J	.
.	.	.	.	.
4cc\	mich	8e/L	8G\L	8E\L
.	.	.	.	.
.	.	8g/J	8e\J	8C\J
.	.	.	.	.
=19	=19	=19	=19	=19
4cc\	nim-	4.g/	8d\L	4G\
.	.	.	.	.
.	.	.	8c\J	.
.	.	.	.	.
4b\	-mer-	.	4d\	4GG/
.	.	.	.	.
.	.	8g/	.	.
.	.	.	.	.
4cc;\	-mehr.	4g;/	4e;\	4C;/
.	.	.	.	.
.	.	.	.	.
.	.	.	.	.
==|!	==|!	==|!	==|!	==|!
*-	*-	*-	*-	*-
!!!RWG: Key is interpreted using the Humdrum key tool.
!!!AFT: stage2
!!!END: 1994/06/10/
!!format changes:
!!content changes:
!!public access: complete
!!!KEY: 425896023
!!!EMD: Converted from MuseData to Humdrum Dec 16, 2000, by Andreas Kornstaedt using muse2kern.
