!!!COM: Bach, Johann Sebastian
!!!OPR: Joh. Seb. Bachs vierstimmige Choralgesänge
!!!XEN: Four-part Chorales
!!!OTL: 50. Ein' feste Burg ist unser Gott
!!!OMV: 1
!!!SCT: BWV 303
!!!SCA: Thematisch-systematisches Verzeichnis der musikalischen Werke Johann Sebastian Bach: Bach-Werke-Verzeichnis (Schmieder)
!!!YOR: Bach Gesellschaft Edition xxxix
!!!EED: Steven Rasmussen
!!!ENC: Steven Rasmussen
!!!CDT: 1685/3//-1750/7/28/
!!!OCY: Deutschland
!!!YEC: Copyright (c) 1994, 2000 Center for Computer Assisted Research in the Humanities
!!!YEM: Rights to all derivative editions reserved
!!!YEM: Refer to licensing agreement for further details
!!!YEN: United States of America
**kern	**silbe	**kern	**kern	**kern
*I:[SOPRANO]	*I:[SOPRANO]	*I:[ALTO]	*I:[TENORE]	*I:[BASSO]
*>[A,A,B]	*	*>[A,A,B]	*>[A,A,B]	*>[A,A,B]
*>A	*	*>A	*>A	*>A
*clefG2	*	*clefG2	*clefGv2	*clefF4
*k[f#c#]	*	*k[f#c#]	*k[f#c#]	*k[f#c#]
*D:	*	*D:	*D:	*D:
*M4/4	*	*M4/4	*M4/4	*M4/4
*tb16	*	*tb16	*tb16	*tb16
=0-	=0-	=0-	=0-	=0-
4dd\	Ein'Er	4a/	8f#\L	8d\L
.	.	.	.	.
.	.	.	8e\J	8c#\J
.	.	.	.	.
2ryy	.	2ryy	2ryy	2ryy
.	.	.	.	.
.	.	.	.	.
.	.	.	.	.
.	.	.	.	.
.	.	.	.	.
.	.	.	.	.
.	.	.	.	.
4ryy	.	4ryy	4ryy	4ryy
.	.	.	.	.
.	.	.	.	.
.	.	.	.	.
=1	=1	=1	=1	=1
4dd\	fe-hilft	8a/L	4d\	4B\
.	.	.	.	.
.	.	8g/J	.	.
.	.	.	.	.
4dd\	-steuns	8f#/L	8cn\L	8A\L
.	.	.	.	.
.	.	8g/J	8B\J	8G\J
.	.	.	.	.
8a/L	Burgfrei	8a/L	4d\	4F#\
.	.	.	.	.
8b/J	.	8f#/J	.	.
.	.	.	.	.
4cc#\	istaus	8g/L	4e\	4E\
.	.	.	.	.
.	.	8a/J	.	.
.	.	.	.	.
=2	=2	=2	=2	=2
8dd\L	un-al-	8f#/L	4A/	4D\
.	.	.	.	.
8cc#\J	.	8e/J	.	.
.	.	.	.	.
4b\	-ser-ler	8d/L	8A/L	4E\
.	.	.	.	.
.	.	8e/J	8G#/J	.
.	.	.	.	.
4a;/	Gott,Not,	4c#;/	4A;/	4AA;/
.	.	.	.	.
.	.	.	.	.
.	.	.	.	.
4dd\	ein'die	4f#/	8F#/L	4BB/
.	.	.	.	.
.	.	.	8G#/J	.
.	.	.	.	.
=3	=3	=3	=3	=3
4cc#\	gu-uns	8e/L	4A/	8C#/L
.	.	.	.	.
.	.	8f#/J	.	8D/J
.	.	.	.	.
4b\	-tejetzt	4g/	8e\L	4E\
.	.	.	.	.
.	.	.	8d\J	.
.	.	.	.	.
4a/	Wehrhat	8f#/L	4c#\	4F#\
.	.	.	.	.
.	.	8e/J	.	.
.	.	.	.	.
8b/L	undbe-	4d/	8B\L	8G\L
.	.	.	.	.
8a/J	.	.	8c#\J	8A\J
.	.	.	.	.
=4	=4	=4	=4	=4
(8g/L	Waf--trof-	4d/	4d\	8B\L
.	.	.	.	.
8f#/J	.	.	.	8G\
.	.	.	.	.
4e/)	.	4c#/	8A/L	8A\
.	.	.	.	.
.	.	.	8G/J	8AA\J
.	.	.	.	.
4d;/	-fen.-fen.	4A;/	4F#;/	4D;\
.	.	.	.	.
.	.	.	.	.
.	.	.	.	.
=:|!	=:|!	=:|!	=:|!	=:|!
*>B	*	*>B	*>B	*>B
(4d/	Der	4d/	8F#/L	8D\L
.	.	.	.	.
.	.	.	8G#/J	8E\J
.	.	.	.	.
2ryy	.	2ryy	2ryy	2ryy
.	.	.	.	.
.	.	.	.	.
.	.	.	.	.
.	.	.	.	.
.	.	.	.	.
.	.	.	.	.
.	.	.	.	.
4ryy	.	4ryy	4ryy	4ryy
.	.	.	.	.
.	.	.	.	.
.	.	.	.	.
=5	=5	=5	=5	=5
4a/)	.	8c#/L	8A\L	4F#\
.	.	.	.	.
.	.	8f#/J	8d\J	.
.	.	.	.	.
4b\	alt'	8e/L	8c#\L	4G#\
.	.	.	.	.
.	.	8d/J	8B\J	.
.	.	.	.	.
4a/	b\o3-	8c#/L	8e\L	8A\L
.	.	.	.	.
.	.	8d/J	8f#\J	8D\J
.	.	.	.	.
4g#/	-se	4B/	8e\L	4E\
.	.	.	.	.
.	.	.	8d\J	.
.	.	.	.	.
=6	=6	=6	=6	=6
4a;/	Feind,	4A;/	4c#;\	4AA;/
.	.	.	.	.
.	.	.	.	.
.	.	.	.	.
4d/	mit	4d/	8F#/L	4BB/
.	.	.	.	.
.	.	.	8G/J	.
.	.	.	.	.
4a/	Ernst	4d/	4A/	4F#\
.	.	.	.	.
.	.	.	.	.
.	.	.	.	.
8b\	er's	8g/	8e\	8E\
.	.	.	.	.
8cc#\	jetzt	8g/	8e\	8AA/
.	.	.	.	.
=7	=7	=7	=7	=7
4dd\	meint,	4f#/	4d\	4D\
.	.	.	.	.
.	.	.	.	.
.	.	.	.	.
4cc#\	gross	4f#/	4A/	4F#\
.	.	.	.	.
.	.	.	.	.
.	.	.	.	.
8dd\	Macht	16f#/LL	8B\	8BB/
.	.	16g#/JJ	.	.
8cc#\	und	8a/	8e\	8C#/
.	.	.	.	.
4b\	viel	8a/L	8f#\L	8D\L
.	.	.	.	.
.	.	8g#/J	8e\J	8E\J
.	.	.	.	.
=8	=8	=8	=8	=8
4a;/	List	4a;/	4c#;\	4AA;/
.	.	.	.	.
.	.	.	.	.
.	.	.	.	.
4b\	sein	4g/	8B\L	4E\
.	.	.	.	.
.	.	.	8c#\J	.
.	.	.	.	.
4b\	grau-	4g/	4d\	8BB/L
.	.	.	.	.
.	.	.	.	8C#/J
.	.	.	.	.
4a/	-sam	4f#/	8d\L	4D\
.	.	.	.	.
.	.	.	8cn\J	.
.	.	.	.	.
=9	=9	=9	=9	=9
8b/L	R\u3-	4f#/	4B\	4D#\
.	.	.	.	.
8a/J	.	.	.	.
.	.	.	.	.
4g/	-stung	4e/	4B\	4E\
.	.	.	.	.
.	.	.	.	.
.	.	.	.	.
4f#;/	ist,	4d#;/	4B;\	4BB;/
.	.	.	.	.
.	.	.	.	.
.	.	.	.	.
4dd\	auf	8f#/L	4B\	4BB/
.	.	.	.	.
.	.	8g#/J	.	.
.	.	.	.	.
=10	=10	=10	=10	=10
4cc#\	Erd'n	4a/	4e\	8C#/L
.	.	.	.	.
.	.	.	.	8D/J
.	.	.	.	.
4b\	ist	4g/	4e\	8E\L
.	.	.	.	.
.	.	.	.	8D\J
.	.	.	.	.
4a/	nicht	4g/	4e\	8C#/L
.	.	.	.	.
.	.	.	.	8AA/J
.	.	.	.	.
8b/L	sein's	8f#/L	8d\L	8D/L
.	.	.	.	.
8a/J	.	8e/J	8A\J	8C#/J
.	.	.	.	.
=11	=11	=11	=11	=11
(8g/L	Glei-	4d/	4B\	8BB/L
.	.	.	.	.
8f#/J	.	.	.	8GG/J
.	.	.	.	.
4e/)	.	4c#/	8E/L	4AA/
.	.	.	.	.
.	.	.	8A/J	.
.	.	.	.	.
2d;/	-chen.	2A;/	2F#;/	2D;\
.	.	.	.	.
.	.	.	.	.
.	.	.	.	.
.	.	.	.	.
.	.	.	.	.
.	.	.	.	.
.	.	.	.	.
==|!	==|!	==|!	==|!	==|!
*-	*-	*-	*-	*-
!!!RWG: Key is interpreted using the Humdrum key tool.
!!!AFT: stage2
!!!END: 1994/05/18/
!!format changes:
!!content changes:
!!public access: complete
!!!KEY: 3543399882
!!!EMD: Converted from MuseData to Humdrum Dec 16, 2000, by Andreas Kornstaedt using muse2kern.
