!!!COM: Bach, Johann Sebastian
!!!OPR: Joh. Seb. Bachs vierstimmige Choralgesänge
!!!XEN: Four-part Chorales
!!!OTL: 105. Jesu, meine Freude
!!!OMV: 1
!!!SCT: BWV 358
!!!SCA: Thematisch-systematisches Verzeichnis der musikalischen Werke Johann Sebastian Bach: Bach-Werke-Verzeichnis (Schmieder)
!!!YOR: Bach Gesellschaft Edition xxxix
!!!EED: Steven Rasmussen
!!!ENC: Steven Rasmussen
!!!CDT: 1685/3//-1750/7/28/
!!!OCY: Deutschland
!!!YEC: Copyright (c) 1994, 2000 Center for Computer Assisted Research in the Humanities
!!!YEM: Rights to all derivative editions reserved
!!!YEM: Refer to licensing agreement for further details
!!!YEN: United States of America
**kern	**silbe	**kern	**kern	**silbe	**kern	**silbe
*I:[SOPRANO]	*I:[SOPRANO]	*I:[ALTO]	*I:[TENORE]	*I:[TENORE]	*I:[BASSO]	*I:[BASSO]
*>[A,A,B]	*	*>[A,A,B]	*>[A,A,B]	*	*>[A,A,B]	*
*>A	*	*>A	*>A	*	*>A	*
*clefG2	*	*clefG2	*clefGv2	*	*clefF4	*
*k[b-]	*	*k[b-]	*k[b-]	*	*k[b-]	*
*d:	*	*d:	*d:	*	*d:	*
*M4/4	*	*M4/4	*M4/4	*	*M4/4	*
*tb16	*	*tb16	*tb16	*	*tb16	*
=1-	=1-	=1-	=1-	=1-	=1-	=1-
4a/	Je-ach	4d/	8F/L	.	8D\L	.
.	.	.	.	.	.	.
.	.	.	8G/J	.	8E\J	.
.	.	.	.	.	.	.
4a/	-su,wie	4d/	4A/	.	4F\	.
.	.	.	.	.	.	.
.	.	.	.	.	.	.
.	.	.	.	.	.	.
4g/	mei-lang',	4e/	8B-/L	.	4C#/	.
.	.	.	.	.	.	.
.	.	.	8A/J	.	.	.
.	.	.	.	.	.	.
4f/	-neach	4d/	4A/	.	4D\	.
.	.	.	.	.	.	.
.	.	.	.	.	.	.
.	.	.	.	.	.	.
=2	=2	=2	=2	=2	=2	=2
2e/	Freu-lan-	4d/	4B-\	.	4GG/	.
.	.	.	.	.	.	.
.	.	.	.	.	.	.
.	.	.	.	.	.	.
.	.	4c#/	8A/L	.	4AA/	.
.	.	.	.	.	.	.
.	.	.	8G/J	.	.	.
.	.	.	.	.	.	.
2d;/	-de,-ge	2A;/	2F;/	.	2DD;/	.
.	.	.	.	.	.	.
.	.	.	.	.	.	.
.	.	.	.	.	.	.
.	.	.	.	.	.	.
.	.	.	.	.	.	.
.	.	.	.	.	.	.
.	.	.	.	.	.	.
=3	=3	=3	=3	=3	=3	=3
4a/	mei-ist	4d/	8f\L	.	8D\L	.
.	.	.	.	.	.	.
.	.	.	8e\J	.	8E\J	.
.	.	.	.	.	.	.
4bn\	-nesdem	4G/	4d\	.	4F\	.
.	.	.	.	.	.	.
.	.	.	.	.	.	.
.	.	.	.	.	.	.
4cc\	Her-Her-	8g/L	4c\	.	8E\L	.
.	.	.	.	.	.	.
.	.	8f/J	.	.	8F\J	.
.	.	.	.	.	.	.
4a/	-zens-zen	4e/	4c#\	.	4G\	.
.	.	.	.	.	.	.
.	.	.	.	.	.	.
.	.	.	.	.	.	.
=4	=4	=4	=4	=4	=4	=4
2dd\	Wei-ban-	4a/	8d\L	.	8F#\L	.
.	.	.	.	.	.	.
.	.	.	8e\J	.	8G#\J	.
.	.	.	.	.	.	.
.	.	4bn\	4f\	.	4G#\	.
.	.	.	.	.	.	.
.	.	.	.	.	.	.
.	.	.	.	.	.	.
2cc#;\	-de,-ge,	2a;/	2e;\	.	2A;\	.
.	.	.	.	.	.	.
.	.	.	.	.	.	.
.	.	.	.	.	.	.
.	.	.	.	.	.	.
.	.	.	.	.	.	.
.	.	.	.	.	.	.
.	.	.	.	.	.	.
=5	=5	=5	=5	=5	=5	=5
8dd\L	Je-und	4g/	4d\	.	4B-\	.
.	.	.	.	.	.	.
8ee\J	.	.	.	.	.	.
.	.	.	.	.	.	.
4ff\	-su,ver-	8a/L	4d\	.	8A\L	.
.	.	.	.	.	.	.
.	.	8b-/J	.	.	8G\J	.
.	.	.	.	.	.	.
4ee\	mei--langt	8g/L	4d\	.	4A\	.
.	.	.	.	.	.	.
.	.	8b-/J	.	.	.	.
.	.	.	.	.	.	.
4ee\	-nenach	8a/L	4c#\	.	4AA/	.
.	.	.	.	.	.	.
.	.	8g/J	.	.	.	.
.	.	.	.	.	.	.
=6	=6	=6	=6	=6	=6	=6
1dd;\	Zier,dir.	1f;/	1A;/	.	1D;\	.
.	.	.	.	.	.	.
.	.	.	.	.	.	.
.	.	.	.	.	.	.
.	.	.	.	.	.	.
.	.	.	.	.	.	.
.	.	.	.	.	.	.
.	.	.	.	.	.	.
.	.	.	.	.	.	.
.	.	.	.	.	.	.
.	.	.	.	.	.	.
.	.	.	.	.	.	.
.	.	.	.	.	.	.
.	.	.	.	.	.	.
.	.	.	.	.	.	.
.	.	.	.	.	.	.
=7:|!	=7:|!	=7:|!	=7:|!	=7:|!	=7:|!	=7:|!
*>B	*	*>B	*>B	*	*>B	*
4a/	Got-	4f/	4d\	.	8D\L	.
.	.	.	.	.	.	.
.	.	.	.	.	8E\J	.
.	.	.	.	.	.	.
4a/	-tes	8f/L	4c\	.	4F\	.
.	.	.	.	.	.	.
.	.	8e-/J	.	.	.	.
.	.	.	.	.	.	.
4b-\	Lamm,	8d/L	8B-\L	.	4G\	.
.	.	.	.	.	.	.
.	.	8en/J	8c\J	.	.	.
.	.	.	.	.	.	.
4a/	mein	4f/	4d\	.	8D/L	.
.	.	.	.	.	.	.
.	.	.	.	.	8C/J	.
.	.	.	.	.	.	.
=8	=8	=8	=8	=8	=8	=8
4g/	Br\a3u-	4f/	4d\	.	8BB-/L	.
.	.	.	.	.	.	.
.	.	.	.	.	8GG/J	.
.	.	.	.	.	.	.
4g/	-ti-	4e/	8c\L	.	4C/	.
.	.	.	.	.	.	.
.	.	.	8B-\J	.	.	.
.	.	.	.	.	.	.
2f;/	-gam,	2c;/	2A;/	.	2FF;/	.
.	.	.	.	.	.	.
.	.	.	.	.	.	.
.	.	.	.	.	.	.
.	.	.	.	.	.	.
.	.	.	.	.	.	.
.	.	.	.	.	.	.
.	.	.	.	.	.	.
=9	=9	=9	=9	=9	=9	=9
4a/	au-	4c/	4A/	.	4F\	.
.	.	.	.	.	.	.
.	.	.	.	.	.	.
.	.	.	.	.	.	.
4bn\	-sser	4f/	8G/L	.	8E\L	.
.	.	.	.	.	.	.
.	.	.	8F/J	.	8D\J	.
.	.	.	.	.	.	.
8cc\L	dir	8e/L	4G/	.	4E\	.
.	.	.	.	.	.	.
8b\J	.	8d/J	.	.	.	.
.	.	.	.	.	.	.
4a/	soll	4c/	4A/	.	4F\	.
.	.	.	.	.	.	.
.	.	.	.	.	.	.
.	.	.	.	.	.	.
=10	=10	=10	=10	=10	=10	=10
4dd\	mir	4f/	8A/	mir	4BBn/	mir
.	.	.	.	.	.	.
.	.	.	8G#/	auf	.	.
.	.	.	.	.	.	.
8cc\L	auf	8e/L	2A/	Er-	8C/L	auf
.	.	.	.	.	.	.
8bn\J	.	8f/J	.	.	8D/J	.
.	.	.	.	.	.	.
2b\	Er-	4.e/	.	.	2E\	Er-
.	.	.	.	.	.	.
.	.	.	.	.	.	.
.	.	.	.	.	.	.
.	.	.	4G#/	.	.	.
.	.	.	.	.	.	.
.	.	8d/	.	.	.	.
.	.	.	.	.	.	.
=11	=11	=11	=11	=11	=11	=11
2a;/	-den	2c#;/	2A;/	-den	2AA;/	-den
.	.	.	.	.	.	.
.	.	.	.	.	.	.
.	.	.	.	.	.	.
.	.	.	.	.	.	.
.	.	.	.	.	.	.
.	.	.	.	.	.	.
.	.	.	.	.	.	.
4a/	nichts	4d/	8F/L	.	8D\L	.
.	.	.	.	.	.	.
.	.	.	8G/J	.	8E\J	.
.	.	.	.	.	.	.
4a/	sonst	8d/L	4A/	.	4F\	.
.	.	.	.	.	.	.
.	.	8c#/J	.	.	.	.
.	.	.	.	.	.	.
=12	=12	=12	=12	=12	=12	=12
4g/	lie-	8d/L	8D/L	.	8BBn/L	.
.	.	.	.	.	.	.
.	.	8e/J	8A/J	.	8C#/J	.
.	.	.	.	.	.	.
4f/	-bers	8e/L	4A/	.	4D\	.
.	.	.	.	.	.	.
.	.	8d/J	.	.	.	.
.	.	.	.	.	.	.
2e/	wer-	8d/L	8Bn/L	.	4GG#/	.
.	.	.	.	.	.	.
.	.	16c#/L	8E/	.	.	.
.	.	16Bn/JJ	.	.	.	.
.	.	4c#/	8A/	.	4AA/	.
.	.	.	.	.	.	.
.	.	.	8G/J	.	.	.
.	.	.	.	.	.	.
=13	=13	=13	=13	=13	=13	=13
1d;/	-den.	1A;/	1F#;/	.	1DD;/	.
.	.	.	.	.	.	.
.	.	.	.	.	.	.
.	.	.	.	.	.	.
.	.	.	.	.	.	.
.	.	.	.	.	.	.
.	.	.	.	.	.	.
.	.	.	.	.	.	.
.	.	.	.	.	.	.
.	.	.	.	.	.	.
.	.	.	.	.	.	.
.	.	.	.	.	.	.
.	.	.	.	.	.	.
.	.	.	.	.	.	.
.	.	.	.	.	.	.
.	.	.	.	.	.	.
==|!	==|!	==|!	==|!	==|!	==|!	==|!
*-	*-	*-	*-	*-	*-	*-
!!!RWG: Key is interpreted using the Humdrum key tool.
!!!AFT: stage2
!!!END: 1994/07/08/
!!format changes:
!!content changes:
!!public access: complete
!!!KEY: 1533321807
!!!EMD: Converted from MuseData to Humdrum Dec 16, 2000, by Andreas Kornstaedt using muse2kern.
